<?xml version="1.0" encoding="UTF-8" standalone="no"?>
<svg
   xmlns:dc="http://purl.org/dc/elements/1.1/"
   xmlns:cc="http://creativecommons.org/ns#"
   xmlns:rdf="http://www.w3.org/1999/02/22-rdf-syntax-ns#"
   xmlns:svg="http://www.w3.org/2000/svg"
   xmlns="http://www.w3.org/2000/svg"
   xmlns:xlink="http://www.w3.org/1999/xlink"
   xmlns:sodipodi="http://sodipodi.sourceforge.net/DTD/sodipodi-0.dtd"
   xmlns:inkscape="http://www.inkscape.org/namespaces/inkscape"
   width="375.75577pt"
   height="259.29721pt"
   viewBox="0 0 375.75577 259.29721"
   version="1.2"
   id="svg296"
   sodipodi:docname="dimer_bethe_lattice.svg"
   inkscape:version="0.92.2 5c3e80d, 2017-08-06">
  <sodipodi:namedview
     pagecolor="#ffffff"
     bordercolor="#666666"
     borderopacity="1"
     objecttolerance="10"
     gridtolerance="10"
     guidetolerance="10"
     inkscape:pageopacity="0"
     inkscape:pageshadow="2"
     inkscape:window-width="1920"
     inkscape:window-height="1080"
     id="namedview298"
     showgrid="false"
     inkscape:zoom="1.7955924"
     inkscape:cx="256.08691"
     inkscape:cy="202.91467"
     inkscape:window-x="0"
     inkscape:window-y="0"
     inkscape:window-maximized="0"
     inkscape:current-layer="svg296"
     fit-margin-top="0"
     fit-margin-left="0"
     fit-margin-right="0"
     fit-margin-bottom="0" />
  <metadata
     id="metadata300">
    <rdf:RDF>
      <cc:Work
         rdf:about="">
        <dc:format>image/svg+xml</dc:format>
        <dc:type
           rdf:resource="http://purl.org/dc/dcmitype/StillImage" />
        <dc:title></dc:title>
      </cc:Work>
    </rdf:RDF>
  </metadata>
  <defs
     id="defs73">
    <g
       id="g71">
      <symbol
         overflow="visible"
         id="glyph0-0"
         style="overflow:visible">
        <path
           style="stroke:none"
           d=""
           id="path2"
           inkscape:connector-curvature="0" />
      </symbol>
      <symbol
         overflow="visible"
         id="glyph0-1"
         style="overflow:visible">
        <path
           style="stroke:none"
           d="M 3.375,-5.921875 H 2.5 v -1.625 H 0.9375 v 1.625 H 0.15625 v 1.03125 H 0.9375 v 3.71875 C 0.9375,-0.21875 1.4375,0.25 2.46875,0.25 2.828125,0.25 3.078125,0.21875 3.375,0.140625 V -0.96875 C 3.21875,-0.9375 3.140625,-0.9375 3.015625,-0.9375 2.59375,-0.9375 2.5,-1.046875 2.5,-1.59375 v -3.296875 h 0.875 z m 0,0"
           id="path5"
           inkscape:connector-curvature="0" />
      </symbol>
      <symbol
         overflow="visible"
         id="glyph0-2"
         style="overflow:visible">
        <path
           style="stroke:none"
           d="M 6.796875,-5.6875 C 6.78125,-7.375 5.65625,-8.296875 3.59375,-8.296875 c -1.953125,0 -3.09375,0.921875 -3.09375,2.5 0,1.265625 0.640625,1.890625 2.296875,2.203125 L 3.9375,-3.375 c 1.125,0.21875 1.546875,0.53125 1.546875,1.1875 0,0.6875 -0.640625,1.09375 -1.65625,1.09375 C 2.6875,-1.09375 2.046875,-1.5625 2,-2.4375 H 0.359375 c 0.09375,1.75 1.296875,2.6875 3.375,2.6875 2.109375,0 3.359375,-0.96875 3.359375,-2.640625 0,-1.28125 -0.65625,-1.953125 -2.171875,-2.25 l -1.265625,-0.25 C 2.453125,-5.125 2.109375,-5.359375 2.109375,-5.953125 c 0,-0.609375 0.53125,-1 1.40625,-1 1.0625,0 1.65625,0.4375 1.71875,1.265625 z m 0,0"
           id="path8"
           inkscape:connector-curvature="0" />
      </symbol>
      <symbol
         overflow="visible"
         id="glyph0-3"
         style="overflow:visible">
        <path
           style="stroke:none"
           d="m 5.875,-2.53125 c 0,-0.140625 0,-0.1875 0,-0.265625 0,-0.609375 -0.078125,-1.171875 -0.234375,-1.59375 C 5.25,-5.484375 4.265625,-6.15625 3.046875,-6.15625 1.3125,-6.15625 0.25,-4.890625 0.25,-2.875 0.25,-0.9375 1.296875,0.25 3.015625,0.25 4.375,0.25 5.46875,-0.5 5.8125,-1.703125 H 4.265625 C 4.078125,-1.21875 3.640625,-0.9375 3.0625,-0.9375 2.625,-0.9375 2.265625,-1.125 2.03125,-1.46875 1.890625,-1.6875 1.84375,-1.953125 1.8125,-2.53125 Z M 1.84375,-3.578125 c 0.09375,-0.921875 0.484375,-1.375 1.1875,-1.375 0.703125,0 1.140625,0.484375 1.21875,1.375 z m 0,0"
           id="path11"
           inkscape:connector-curvature="0" />
      </symbol>
      <symbol
         overflow="visible"
         id="glyph0-4"
         style="overflow:visible">
        <path
           style="stroke:none"
           d="M 2.3125,-8.171875 H 0.75 V 0 h 1.5625 z m 0,0"
           id="path14"
           inkscape:connector-curvature="0" />
      </symbol>
      <symbol
         overflow="visible"
         id="glyph0-5"
         style="overflow:visible">
        <path
           style="stroke:none"
           d="M 3.5,-5.921875 H 2.578125 v -0.59375 c 0,-0.3125 0.140625,-0.46875 0.421875,-0.46875 0.140625,0 0.296875,0 0.453125,0.03125 v -1.1875 c -0.34375,-0.015625 -0.65625,-0.03125 -0.90625,-0.03125 -1.03125,0 -1.53125,0.5 -1.53125,1.515625 v 0.734375 H 0.15625 v 1.03125 H 1.015625 V 0 h 1.5625 V -4.890625 H 3.5 Z m 0,0"
           id="path17"
           inkscape:connector-curvature="0" />
      </symbol>
      <symbol
         overflow="visible"
         id="glyph0-6"
         style="overflow:visible">
        <path
           style="stroke:none"
           d="M 3.34375,-3.828125 H 0.296875 V -2.3125 H 3.34375 Z m 0,0"
           id="path20"
           inkscape:connector-curvature="0" />
      </symbol>
      <symbol
         overflow="visible"
         id="glyph0-7"
         style="overflow:visible">
        <path
           style="stroke:none"
           d="m 5.84375,-3.78125 c -0.109375,-1.484375 -1.078125,-2.375 -2.609375,-2.375 -1.8125,0 -2.859375,1.1875 -2.859375,3.25 0,2 1.046875,3.15625 2.84375,3.15625 1.46875,0 2.484375,-0.90625 2.625,-2.34375 h -1.5 c -0.1875,0.78125 -0.5,1.078125 -1.125,1.078125 -0.796875,0 -1.265625,-0.703125 -1.265625,-1.890625 0,-0.578125 0.109375,-1.109375 0.296875,-1.46875 0.1875,-0.328125 0.53125,-0.515625 0.96875,-0.515625 0.640625,0 0.953125,0.3125 1.125,1.109375 z m 0,0"
           id="path23"
           inkscape:connector-curvature="0" />
      </symbol>
      <symbol
         overflow="visible"
         id="glyph0-8"
         style="overflow:visible">
        <path
           style="stroke:none"
           d="m 3.375,-6.15625 c -1.84375,0 -2.984375,1.234375 -2.984375,3.203125 0,2 1.140625,3.203125 3,3.203125 1.84375,0 2.984375,-1.203125 2.984375,-3.15625 0,-2.046875 -1.109375,-3.25 -3,-3.25 z m 0.015625,1.265625 c 0.859375,0 1.421875,0.78125 1.421875,1.96875 0,1.125 -0.59375,1.90625 -1.421875,1.90625 -0.859375,0 -1.4375,-0.765625 -1.4375,-1.9375 0,-1.15625 0.578125,-1.9375 1.4375,-1.9375 z m 0,0"
           id="path26"
           inkscape:connector-curvature="0" />
      </symbol>
      <symbol
         overflow="visible"
         id="glyph0-9"
         style="overflow:visible">
        <path
           style="stroke:none"
           d="M 0.703125,-6.046875 V 0 H 2.28125 v -3.625 c 0,-0.71875 0.484375,-1.1875 1.265625,-1.1875 0.671875,0 1,0.359375 1,1.078125 V 0 h 1.5625 v -4.0625 c 0,-1.34375 -0.71875,-2.09375 -2.015625,-2.09375 -0.828125,0 -1.375,0.296875 -1.8125,0.984375 v -0.875 z m 0,0"
           id="path29"
           inkscape:connector-curvature="0" />
      </symbol>
      <symbol
         overflow="visible"
         id="glyph0-10"
         style="overflow:visible">
        <path
           style="stroke:none"
           d="m 5.65625,-4.09375 c -0.015625,-1.28125 -1,-2.0625 -2.625,-2.0625 -1.546875,0 -2.5,0.78125 -2.5,2.015625 0,0.40625 0.125,0.75 0.34375,1 0.21875,0.203125 0.40625,0.3125 0.984375,0.5 l 1.875,0.578125 c 0.390625,0.125 0.515625,0.25 0.515625,0.5 0,0.359375 -0.4375,0.59375 -1.15625,0.59375 -0.421875,0 -0.734375,-0.078125 -0.9375,-0.21875 C 2,-1.3125 1.921875,-1.4375 1.859375,-1.765625 H 0.328125 C 0.375,-0.421875 1.34375,0.25 3.1875,0.25 c 0.828125,0 1.46875,-0.171875 1.921875,-0.53125 0.453125,-0.359375 0.71875,-0.921875 0.71875,-1.515625 0,-0.78125 -0.390625,-1.28125 -1.1875,-1.515625 L 2.65625,-3.890625 c -0.4375,-0.125 -0.546875,-0.21875 -0.546875,-0.46875 0,-0.328125 0.359375,-0.5625 0.90625,-0.5625 0.75,0 1.125,0.265625 1.125,0.828125 z m 0,0"
           id="path32"
           inkscape:connector-curvature="0" />
      </symbol>
      <symbol
         overflow="visible"
         id="glyph0-11"
         style="overflow:visible">
        <path
           style="stroke:none"
           d="M 2.3125,-6.046875 H 0.75 V 0 h 1.5625 z m 0,-2.125 H 0.75 v 1.40625 h 1.5625 z m 0,0"
           id="path35"
           inkscape:connector-curvature="0" />
      </symbol>
      <symbol
         overflow="visible"
         id="glyph0-12"
         style="overflow:visible">
        <path
           style="stroke:none"
           d="m 4.40625,-6.046875 -1.25,4.40625 -1.328125,-4.40625 H 0.09375 L 2.359375,0.25 c 0,0.625 -0.40625,1.046875 -0.984375,1.046875 -0.125,0 -0.21875,-0.015625 -0.40625,-0.0625 V 2.40625 c 0.234375,0.03125 0.359375,0.046875 0.5625,0.046875 0.390625,0 0.84375,-0.078125 1.125,-0.1875 0.4375,-0.1875 0.625,-0.421875 0.890625,-1.15625 l 2.484375,-7.15625 z m 0,0"
           id="path38"
           inkscape:connector-curvature="0" />
      </symbol>
      <symbol
         overflow="visible"
         id="glyph0-13"
         style="overflow:visible">
        <path
           style="stroke:none"
           d=""
           id="path41"
           inkscape:connector-curvature="0" />
      </symbol>
      <symbol
         overflow="visible"
         id="glyph0-14"
         style="overflow:visible">
        <path
           style="stroke:none"
           d="M 0.671875,-6.046875 V 0 h 1.5625 v -3.625 c 0,-0.75 0.40625,-1.1875 1.078125,-1.1875 0.53125,0 0.859375,0.296875 0.859375,0.78125 V 0 h 1.5625 v -3.625 c 0,-0.75 0.40625,-1.1875 1.078125,-1.1875 0.53125,0 0.84375,0.296875 0.84375,0.78125 V 0 h 1.578125 v -4.28125 c 0,-1.171875 -0.71875,-1.875 -1.9375,-1.875 C 6.53125,-6.15625 6,-5.875 5.53125,-5.25 5.25,-5.828125 4.640625,-6.15625 3.890625,-6.15625 3.1875,-6.15625 2.75,-5.921875 2.234375,-5.296875 v -0.75 z m 0,0"
           id="path44"
           inkscape:connector-curvature="0" />
      </symbol>
      <symbol
         overflow="visible"
         id="glyph0-15"
         style="overflow:visible">
        <path
           style="stroke:none"
           d="M 0.65625,-8.171875 V 0 H 2.234375 V -0.609375 C 2.609375,-0.015625 3.140625,0.25 3.90625,0.25 c 1.4375,0 2.53125,-1.375 2.53125,-3.203125 0,-0.8125 -0.25,-1.640625 -0.640625,-2.21875 C 5.375,-5.765625 4.640625,-6.15625 3.90625,-6.15625 c -0.765625,0 -1.296875,0.28125 -1.671875,0.890625 v -2.90625 z m 2.890625,3.328125 c 0.78125,0 1.328125,0.78125 1.328125,1.90625 0,1.109375 -0.546875,1.890625 -1.328125,1.890625 -0.796875,0 -1.3125,-0.75 -1.3125,-1.921875 0,-1.109375 0.53125,-1.875 1.3125,-1.875 z m 0,0"
           id="path47"
           inkscape:connector-curvature="0" />
      </symbol>
      <symbol
         overflow="visible"
         id="glyph0-16"
         style="overflow:visible">
        <path
           style="stroke:none"
           d="M 4.53125,0 H 6.109375 V -8.171875 H 4.53125 v 2.90625 C 4.140625,-5.875 3.625,-6.15625 2.875,-6.15625 c -1.453125,0 -2.546875,1.390625 -2.546875,3.21875 0,0.8125 0.25,1.65625 0.640625,2.234375 C 1.390625,-0.109375 2.125,0.25 2.875,0.25 c 0.75,0 1.265625,-0.265625 1.65625,-0.859375 z m -1.3125,-4.84375 c 0.796875,0 1.3125,0.765625 1.3125,1.9375 0,1.09375 -0.53125,1.859375 -1.3125,1.859375 -0.78125,0 -1.328125,-0.78125 -1.328125,-1.890625 0,-1.125 0.546875,-1.90625 1.328125,-1.90625 z m 0,0"
           id="path50"
           inkscape:connector-curvature="0" />
      </symbol>
      <symbol
         overflow="visible"
         id="glyph0-17"
         style="overflow:visible">
        <path
           style="stroke:none"
           d="M 6.0625,0 V -6.046875 H 4.5 v 3.78125 c 0,0.71875 -0.5,1.1875 -1.28125,1.1875 -0.671875,0 -1,-0.359375 -1,-1.078125 V -6.046875 H 0.65625 V -1.84375 C 0.65625,-0.5 1.375,0.25 2.671875,0.25 3.5,0.25 4.046875,-0.03125 4.5,-0.71875 V 0 Z m 0,0"
           id="path53"
           inkscape:connector-curvature="0" />
      </symbol>
      <symbol
         overflow="visible"
         id="glyph0-18"
         style="overflow:visible">
        <path
           style="stroke:none"
           d="M 0.703125,-6.046875 V 0 H 2.28125 v -3.21875 c 0,-0.921875 0.453125,-1.375 1.375,-1.375 0.15625,0 0.28125,0.015625 0.484375,0.046875 v -1.59375 C 4.0625,-6.15625 4.015625,-6.15625 3.953125,-6.15625 c -0.71875,0 -1.328125,0.46875 -1.671875,1.296875 v -1.1875 z m 0,0"
           id="path56"
           inkscape:connector-curvature="0" />
      </symbol>
      <symbol
         overflow="visible"
         id="glyph0-19"
         style="overflow:visible">
        <path
           style="stroke:none"
           d="M 5.875,-0.1875 C 5.59375,-0.453125 5.515625,-0.625 5.515625,-0.9375 v -3.359375 c 0,-1.21875 -0.84375,-1.859375 -2.484375,-1.859375 -1.625,0 -2.484375,0.703125 -2.578125,2.09375 h 1.5 c 0.078125,-0.625 0.34375,-0.828125 1.109375,-0.828125 0.609375,0 0.921875,0.203125 0.921875,0.609375 0,0.203125 -0.109375,0.375 -0.28125,0.46875 C 3.5,-3.703125 3.5,-3.703125 2.71875,-3.578125 l -0.625,0.109375 C 0.890625,-3.265625 0.3125,-2.640625 0.3125,-1.5625 c 0,1.09375 0.734375,1.8125 1.84375,1.8125 0.671875,0 1.265625,-0.265625 1.828125,-0.859375 0,0.3125 0.03125,0.4375 0.1875,0.609375 H 5.875 Z m -1.890625,-2.25 c 0,0.90625 -0.453125,1.421875 -1.25,1.421875 -0.53125,0 -0.859375,-0.265625 -0.859375,-0.71875 0,-0.46875 0.25,-0.703125 0.90625,-0.828125 L 3.3125,-2.671875 C 3.734375,-2.75 3.796875,-2.765625 3.984375,-2.859375 Z m 0,0"
           id="path59"
           inkscape:connector-curvature="0" />
      </symbol>
      <symbol
         overflow="visible"
         id="glyph1-0"
         style="overflow:visible">
        <path
           style="stroke:none"
           d=""
           id="path62"
           inkscape:connector-curvature="0" />
      </symbol>
      <symbol
         overflow="visible"
         id="glyph1-1"
         style="overflow:visible">
        <path
           style="stroke:none"
           d="M 5.125,-0.46875 C 5.046875,-0.453125 5.015625,-0.453125 4.953125,-0.453125 4.6875,-0.453125 4.53125,-0.59375 4.53125,-0.84375 v -2.953125 c 0,-0.890625 -0.65625,-1.375 -1.890625,-1.375 -0.734375,0 -1.328125,0.21875 -1.671875,0.59375 -0.234375,0.25 -0.328125,0.546875 -0.34375,1.03125 H 1.421875 C 1.5,-4.15625 1.859375,-4.4375 2.609375,-4.4375 c 0.734375,0 1.125,0.28125 1.125,0.75 v 0.21875 C 3.71875,-3.125 3.546875,-3 2.890625,-2.921875 c -1.125,0.15625 -1.296875,0.1875 -1.609375,0.3125 -0.578125,0.25 -0.875,0.6875 -0.875,1.34375 0,0.90625 0.625,1.484375 1.640625,1.484375 C 2.6875,0.21875 3.1875,0 3.765625,-0.515625 3.8125,0 4.0625,0.21875 4.578125,0.21875 c 0.1875,0 0.28125,-0.015625 0.546875,-0.078125 z M 3.734375,-1.578125 c 0,0.265625 -0.078125,0.421875 -0.3125,0.640625 -0.328125,0.296875 -0.71875,0.453125 -1.203125,0.453125 -0.609375,0 -0.984375,-0.296875 -0.984375,-0.796875 0,-0.53125 0.34375,-0.796875 1.21875,-0.921875 0.84375,-0.125 1.015625,-0.15625 1.28125,-0.28125 z m 0,0"
           id="path65"
           inkscape:connector-curvature="0" />
      </symbol>
      <symbol
         overflow="visible"
         id="glyph1-2"
         style="overflow:visible">
        <path
           style="stroke:none"
           d="m 0.515625,-7 v 7 h 0.71875 V -0.640625 C 1.625,-0.0625 2.125,0.21875 2.828125,0.21875 c 1.328125,0 2.1875,-1.078125 2.1875,-2.75 0,-1.625 -0.8125,-2.640625 -2.140625,-2.640625 -0.703125,0 -1.1875,0.265625 -1.5625,0.828125 V -7 Z m 2.203125,2.578125 c 0.890625,0 1.46875,0.78125 1.46875,1.96875 0,1.140625 -0.59375,1.921875 -1.46875,1.921875 -0.859375,0 -1.40625,-0.765625 -1.40625,-1.9375 0,-1.1875 0.546875,-1.953125 1.40625,-1.953125 z m 0,0"
           id="path68"
           inkscape:connector-curvature="0" />
      </symbol>
    </g>
  </defs>
  <path
     inkscape:connector-curvature="0"
     id="path75"
     d="M 90.585547,166.08611 H 164.18711 V 94.086107 H 90.585547 Z m 0,0"
     style="fill:none;stroke:#000000;stroke-width:0.80000001;stroke-linecap:butt;stroke-linejoin:miter;stroke-miterlimit:10;stroke-opacity:1" />
  <path
     inkscape:connector-curvature="0"
     id="path77"
     d="M 91.386327,93.285327 8.9878875,42.886887 H 88.987887 l 74.398443,49.60156"
     style="fill:none;stroke:#000000;stroke-width:0.80000001;stroke-linecap:butt;stroke-linejoin:miter;stroke-miterlimit:10;stroke-opacity:1" />
  <path
     inkscape:connector-curvature="0"
     id="path79"
     d="m 163.38633,92.488447 82.39844,-50.40234 h -80 l -74.398443,49.60156"
     style="fill:none;stroke:#000000;stroke-width:0.80000001;stroke-linecap:butt;stroke-linejoin:miter;stroke-miterlimit:10;stroke-opacity:1" />
  <path
     inkscape:connector-curvature="0"
     id="path81"
     d="m 169.78477,165.28533 c 0,-4.41797 -3.22266,-8 -7.19922,-8 -3.97656,0 -7.19922,3.58203 -7.19922,8 0,4.41797 3.22266,8 7.19922,8 3.97656,0 7.19922,-3.58203 7.19922,-8"
     style="fill:#000000;fill-opacity:1;fill-rule:evenodd;stroke:#000000;stroke-width:0.80000001;stroke-linecap:butt;stroke-linejoin:miter;stroke-miterlimit:10;stroke-opacity:1" />
  <path
     inkscape:connector-curvature="0"
     id="path83"
     d="m 98.585547,165.28533 c 0,-4.41797 -3.22266,-8 -7.19922,-8 -3.97656,0 -7.19922,3.58203 -7.19922,8 0,4.41797 3.22266,8 7.19922,8 3.97656,0 7.19922,-3.58203 7.19922,-8"
     style="fill:#000000;fill-opacity:1;fill-rule:evenodd;stroke:#000000;stroke-width:0.80000001;stroke-linecap:butt;stroke-linejoin:miter;stroke-miterlimit:10;stroke-opacity:1" />
  <path
     inkscape:connector-curvature="0"
     id="path85"
     d="m 168.98789,93.285327 c 0,-4.41797 -3.22656,-8 -7.20312,-8 -3.97266,0 -7.19922,3.58203 -7.19922,8 0,4.41797 3.22656,8.000003 7.19922,8.000003 3.97656,0 7.20312,-3.582033 7.20312,-8.000003"
     style="fill:#000000;fill-opacity:1;fill-rule:evenodd;stroke:#000000;stroke-width:0.80000001;stroke-linecap:butt;stroke-linejoin:miter;stroke-miterlimit:10;stroke-opacity:1" />
  <path
     inkscape:connector-curvature="0"
     id="path87"
     d="m 98.585547,93.285327 c 0,-4.41797 -3.22266,-8 -7.19922,-8 -3.97656,0 -7.19922,3.58203 -7.19922,8 0,4.41797 3.22266,8.000003 7.19922,8.000003 3.97656,0 7.19922,-3.582033 7.19922,-8.000003"
     style="fill:#000000;fill-opacity:1;fill-rule:evenodd;stroke:#000000;stroke-width:0.80000001;stroke-linecap:butt;stroke-linejoin:miter;stroke-miterlimit:10;stroke-opacity:1" />
  <path
     inkscape:connector-curvature="0"
     id="path89"
     d="m 250.58555,43.687667 c 0,-4.41797 -3.22266,-8 -7.19922,-8 -3.97656,0 -7.19922,3.58203 -7.19922,8 0,4.41797 3.22266,8 7.19922,8 3.97656,0 7.19922,-3.58203 7.19922,-8"
     style="fill:#000000;fill-opacity:1;fill-rule:evenodd;stroke:#000000;stroke-width:0.80000001;stroke-linecap:butt;stroke-linejoin:miter;stroke-miterlimit:10;stroke-opacity:1" />
  <path
     inkscape:connector-curvature="0"
     id="path91"
     d="m 173.78477,42.886887 c 0,-4.41797 -3.22266,-8 -7.19922,-8 -3.97656,0 -7.19922,3.58203 -7.19922,8 0,4.41797 3.22266,8 7.19922,8 3.97656,0 7.19922,-3.58203 7.19922,-8"
     style="fill:#000000;fill-opacity:1;fill-rule:evenodd;stroke:#000000;stroke-width:0.80000001;stroke-linecap:butt;stroke-linejoin:miter;stroke-miterlimit:10;stroke-opacity:1" />
  <path
     inkscape:connector-curvature="0"
     id="path93"
     d="m 98.585547,45.285327 c 0,-4.41797 -3.22266,-8 -7.19922,-8 -3.97656,0 -7.19922,3.58203 -7.19922,8 0,4.41797 3.22266,8 7.19922,8 3.97656,0 7.19922,-3.58203 7.19922,-8"
     style="fill:#000000;fill-opacity:1;fill-rule:evenodd;stroke:#000000;stroke-width:0.80000001;stroke-linecap:butt;stroke-linejoin:miter;stroke-miterlimit:10;stroke-opacity:1" />
  <path
     inkscape:connector-curvature="0"
     id="path95"
     d="m 19.386327,45.285327 c 0,-4.41797 -3.22266,-8 -7.19922,-8 -3.9765595,0 -7.1992195,3.58203 -7.1992195,8 0,4.41797 3.22266,8 7.1992195,8 3.97656,0 7.19922,-3.58203 7.19922,-8"
     style="fill:#000000;fill-opacity:1;fill-rule:evenodd;stroke:#000000;stroke-width:0.80000001;stroke-linecap:butt;stroke-linejoin:miter;stroke-miterlimit:10;stroke-opacity:1" />
  <path
     inkscape:connector-curvature="0"
     id="path97"
     d="M 234.18711,0.10563736 244.96055,40.242357"
     style="fill:none;stroke:#000000;stroke-width:0.80000001;stroke-linecap:butt;stroke-linejoin:miter;stroke-miterlimit:10;stroke-opacity:1" />
  <path
     inkscape:connector-curvature="0"
     id="path99"
     d="M 256.58555,0.10563736 245.81211,40.242357"
     style="fill:none;stroke:#000000;stroke-width:0.80000001;stroke-linecap:butt;stroke-linejoin:miter;stroke-miterlimit:10;stroke-opacity:1" />
  <path
     inkscape:connector-curvature="0"
     id="path101"
     d="M 154.38633,0.10368736 165.15977,40.244317"
     style="fill:none;stroke:#000000;stroke-width:0.80000001;stroke-linecap:butt;stroke-linejoin:miter;stroke-miterlimit:10;stroke-opacity:1" />
  <path
     inkscape:connector-curvature="0"
     id="path103"
     d="M 176.78477,0.10563736 166.01133,40.242357"
     style="fill:none;stroke:#000000;stroke-width:0.80000001;stroke-linecap:butt;stroke-linejoin:miter;stroke-miterlimit:10;stroke-opacity:1" />
  <path
     inkscape:connector-curvature="0"
     id="path105"
     d="M 80.585547,0.10563736 91.362887,40.242357"
     style="fill:none;stroke:#000000;stroke-width:0.80000001;stroke-linecap:butt;stroke-linejoin:miter;stroke-miterlimit:10;stroke-opacity:1" />
  <path
     inkscape:connector-curvature="0"
     id="path107"
     d="M 102.98789,0.10563736 92.210547,40.242357"
     style="fill:none;stroke:#000000;stroke-width:0.80000001;stroke-linecap:butt;stroke-linejoin:miter;stroke-miterlimit:10;stroke-opacity:1" />
  <path
     inkscape:connector-curvature="0"
     id="path109"
     d="M 0.3863275,0.10368736 11.159767,40.244317"
     style="fill:none;stroke:#000000;stroke-width:0.80000001;stroke-linecap:butt;stroke-linejoin:miter;stroke-miterlimit:10;stroke-opacity:1" />
  <path
     inkscape:connector-curvature="0"
     id="path111"
     d="M 22.784767,0.10563736 12.011327,40.242357"
     style="fill:none;stroke:#000000;stroke-width:0.80000001;stroke-linecap:butt;stroke-linejoin:miter;stroke-miterlimit:10;stroke-opacity:1" />
  <path
     inkscape:connector-curvature="0"
     id="path149"
     d="m 164.98789,166.88689 82.39844,50.39844 h -80 L 92.987887,167.68767"
     style="fill:none;stroke:#000000;stroke-width:0.80000001;stroke-linecap:butt;stroke-linejoin:miter;stroke-miterlimit:10;stroke-opacity:1" />
  <path
     inkscape:connector-curvature="0"
     id="path151"
     d="m 93.784767,166.88689 -82.39844,50.39844 h 80 l 74.398443,-49.59766"
     style="fill:none;stroke:#000000;stroke-width:0.80000001;stroke-linecap:butt;stroke-linejoin:miter;stroke-miterlimit:10;stroke-opacity:1" />
  <path
     inkscape:connector-curvature="0"
     id="path153"
     d="m 252.18711,218.08611 c 0,-4.41797 -3.22656,-8 -7.19922,-8 -3.97656,0 -7.20312,3.58203 -7.20312,8 0,4.41797 3.22656,8 7.20312,8 3.97266,0 7.19922,-3.58203 7.19922,-8"
     style="fill:#000000;fill-opacity:1;fill-rule:evenodd;stroke:#000000;stroke-width:0.80000001;stroke-linecap:butt;stroke-linejoin:miter;stroke-miterlimit:10;stroke-opacity:1" />
  <path
     inkscape:connector-curvature="0"
     id="path155"
     d="m 171.38633,218.08611 c 0,-4.41797 -3.22266,-8 -7.19922,-8 -3.97656,0 -7.19922,3.58203 -7.19922,8 0,4.41797 3.22266,8 7.19922,8 3.97656,0 7.19922,-3.58203 7.19922,-8"
     style="fill:#000000;fill-opacity:1;fill-rule:evenodd;stroke:#000000;stroke-width:0.80000001;stroke-linecap:butt;stroke-linejoin:miter;stroke-miterlimit:10;stroke-opacity:1" />
  <path
     inkscape:connector-curvature="0"
     id="path157"
     d="m 100.18711,218.08611 c 0,-4.41797 -3.226563,-8 -7.199223,-8 -3.97656,0 -7.20312,3.58203 -7.20312,8 0,4.41797 3.22656,8 7.20312,8 3.97266,0 7.199223,-3.58203 7.199223,-8"
     style="fill:#000000;fill-opacity:1;fill-rule:evenodd;stroke:#000000;stroke-width:0.80000001;stroke-linecap:butt;stroke-linejoin:miter;stroke-miterlimit:10;stroke-opacity:1" />
  <path
     inkscape:connector-curvature="0"
     id="path159"
     d="m 20.187107,217.28533 c 0,-4.41797 -3.22656,-8 -7.19922,-8 -3.9765595,0 -7.2031195,3.58203 -7.2031195,8 0,4.41797 3.22656,8 7.2031195,8 3.97266,0 7.19922,-3.58203 7.19922,-8"
     style="fill:#000000;fill-opacity:1;fill-rule:evenodd;stroke:#000000;stroke-width:0.80000001;stroke-linecap:butt;stroke-linejoin:miter;stroke-miterlimit:10;stroke-opacity:1" />
  <path
     inkscape:connector-curvature="0"
     id="path161"
     d="m 234.18711,259.19353 10.77344,-40.13672"
     style="fill:none;stroke:#000000;stroke-width:0.80000001;stroke-linecap:butt;stroke-linejoin:miter;stroke-miterlimit:10;stroke-opacity:1" />
  <path
     inkscape:connector-curvature="0"
     id="path163"
     d="M 256.58555,259.19353 245.81211,219.05681"
     style="fill:none;stroke:#000000;stroke-width:0.80000001;stroke-linecap:butt;stroke-linejoin:miter;stroke-miterlimit:10;stroke-opacity:1" />
  <path
     inkscape:connector-curvature="0"
     id="path165"
     d="m 153.38633,259.19353 10.77344,-40.13672"
     style="fill:none;stroke:#000000;stroke-width:0.80000001;stroke-linecap:butt;stroke-linejoin:miter;stroke-miterlimit:10;stroke-opacity:1" />
  <path
     inkscape:connector-curvature="0"
     id="path167"
     d="M 175.78477,259.19353 165.01133,219.05681"
     style="fill:none;stroke:#000000;stroke-width:0.80000001;stroke-linecap:butt;stroke-linejoin:miter;stroke-miterlimit:10;stroke-opacity:1" />
  <path
     inkscape:connector-curvature="0"
     id="path169"
     d="m 82.187107,259.19353 10.77344,-40.13672"
     style="fill:none;stroke:#000000;stroke-width:0.80000001;stroke-linecap:butt;stroke-linejoin:miter;stroke-miterlimit:10;stroke-opacity:1" />
  <path
     inkscape:connector-curvature="0"
     id="path171"
     d="M 104.58555,259.19353 93.812107,219.05681"
     style="fill:none;stroke:#000000;stroke-width:0.80000001;stroke-linecap:butt;stroke-linejoin:miter;stroke-miterlimit:10;stroke-opacity:1" />
  <path
     inkscape:connector-curvature="0"
     id="path173"
     d="M 1.3863275,259.19353 12.159767,219.05681"
     style="fill:none;stroke:#000000;stroke-width:0.80000001;stroke-linecap:butt;stroke-linejoin:miter;stroke-miterlimit:10;stroke-opacity:1" />
  <path
     inkscape:connector-curvature="0"
     id="path175"
     d="M 23.784767,259.19353 13.011327,219.05681"
     style="fill:none;stroke:#000000;stroke-width:0.80000001;stroke-linecap:butt;stroke-linejoin:miter;stroke-miterlimit:10;stroke-opacity:1" />
  <path
     inkscape:connector-curvature="0"
     id="path215"
     d="M 79.386327,115.68767 H 177.78477 V 70.886887 H 79.386327 Z m 0,0"
     style="fill:none;stroke:#000000;stroke-width:1.60000002;stroke-linecap:butt;stroke-linejoin:miter;stroke-miterlimit:10;stroke-dasharray:1.6, 1.6, 1.6, 1.6, 1.6, 1.6, 1.6, 1.6;stroke-dashoffset:120;stroke-opacity:1" />
  <g
     id="g285"
     style="fill:#000000;fill-opacity:1"
     transform="translate(-148.61367,-245.11311)">
    <use
       height="100%"
       width="100%"
       id="use217"
       y="356.56201"
       x="336"
       xlink:href="#glyph0-2" />
    <use
       height="100%"
       width="100%"
       id="use219"
       y="356.56201"
       x="343.4704"
       xlink:href="#glyph0-3" />
    <use
       height="100%"
       width="100%"
       id="use221"
       y="356.56201"
       x="349.6976"
       xlink:href="#glyph0-4" />
    <use
       height="100%"
       width="100%"
       id="use223"
       y="356.56201"
       x="352.81119"
       xlink:href="#glyph0-5" />
    <use
       height="100%"
       width="100%"
       id="use225"
       y="356.56201"
       x="356.5408"
       xlink:href="#glyph0-6" />
    <use
       height="100%"
       width="100%"
       id="use227"
       y="356.56201"
       x="360.27039"
       xlink:href="#glyph0-7" />
    <use
       height="100%"
       width="100%"
       id="use229"
       y="356.56201"
       x="366.49759"
       xlink:href="#glyph0-8" />
    <use
       height="100%"
       width="100%"
       id="use231"
       y="356.56201"
       x="373.34079"
       xlink:href="#glyph0-9" />
    <use
       height="100%"
       width="100%"
       id="use233"
       y="356.56201"
       x="380.18399"
       xlink:href="#glyph0-10" />
    <use
       height="100%"
       width="100%"
       id="use235"
       y="356.56201"
       x="386.41119"
       xlink:href="#glyph0-11" />
    <use
       height="100%"
       width="100%"
       id="use237"
       y="356.56201"
       x="389.52481"
       xlink:href="#glyph0-10" />
    <use
       height="100%"
       width="100%"
       id="use239"
       y="356.56201"
       x="395.75201"
       xlink:href="#glyph0-1" />
    <use
       height="100%"
       width="100%"
       id="use241"
       y="356.56201"
       x="399.4816"
       xlink:href="#glyph0-3" />
    <use
       height="100%"
       width="100%"
       id="use243"
       y="356.56201"
       x="405.7088"
       xlink:href="#glyph0-9" />
    <use
       height="100%"
       width="100%"
       id="use245"
       y="356.56201"
       x="412.552"
       xlink:href="#glyph0-1" />
    <use
       height="100%"
       width="100%"
       id="use247"
       y="356.56201"
       x="416.28159"
       xlink:href="#glyph0-4" />
    <use
       height="100%"
       width="100%"
       id="use249"
       y="356.56201"
       x="419.3952"
       xlink:href="#glyph0-12" />
    <use
       height="100%"
       width="100%"
       id="use251"
       y="356.56201"
       x="425.62241"
       xlink:href="#glyph0-13" />
    <use
       height="100%"
       width="100%"
       id="use253"
       y="356.56201"
       x="428.73599"
       xlink:href="#glyph0-3" />
    <use
       height="100%"
       width="100%"
       id="use255"
       y="356.56201"
       x="434.9632"
       xlink:href="#glyph0-14" />
    <use
       height="100%"
       width="100%"
       id="use257"
       y="356.56201"
       x="444.92001"
       xlink:href="#glyph0-15" />
    <use
       height="100%"
       width="100%"
       id="use259"
       y="356.56201"
       x="451.76321"
       xlink:href="#glyph0-3" />
    <use
       height="100%"
       width="100%"
       id="use261"
       y="356.56201"
       x="457.99039"
       xlink:href="#glyph0-16" />
    <use
       height="100%"
       width="100%"
       id="use263"
       y="356.56201"
       x="464.83359"
       xlink:href="#glyph0-16" />
    <use
       height="100%"
       width="100%"
       id="use265"
       y="356.56201"
       x="471.67679"
       xlink:href="#glyph0-3" />
    <use
       height="100%"
       width="100%"
       id="use267"
       y="356.56201"
       x="477.90399"
       xlink:href="#glyph0-16" />
    <use
       height="100%"
       width="100%"
       id="use269"
       y="356.56201"
       x="484.74719"
       xlink:href="#glyph0-13" />
    <use
       height="100%"
       width="100%"
       id="use271"
       y="356.56201"
       x="487.86081"
       xlink:href="#glyph0-7" />
    <use
       height="100%"
       width="100%"
       id="use273"
       y="356.56201"
       x="494.08801"
       xlink:href="#glyph0-4" />
    <use
       height="100%"
       width="100%"
       id="use275"
       y="356.56201"
       x="497.2016"
       xlink:href="#glyph0-17" />
    <use
       height="100%"
       width="100%"
       id="use277"
       y="356.56201"
       x="504.0448"
       xlink:href="#glyph0-10" />
    <use
       height="100%"
       width="100%"
       id="use279"
       y="356.56201"
       x="510.272"
       xlink:href="#glyph0-1" />
    <use
       height="100%"
       width="100%"
       id="use281"
       y="356.56201"
       x="514.00159"
       xlink:href="#glyph0-3" />
    <use
       height="100%"
       width="100%"
       id="use283"
       y="356.56201"
       x="520.22882"
       xlink:href="#glyph0-18" />
  </g>
  <path
     d="m 173.32737,130.64006 h 1.54139 c 0.32605,0 0.49073,0 0.49073,-0.32936 0,-0.18115 -0.16468,-0.18115 -0.4578,-0.18115 h -1.44587 c 0.58954,-2.33183 0.67189,-2.66118 0.67189,-2.7567 0,-0.27995 -0.19432,-0.44463 -0.47098,-0.44463 -0.0527,0 -0.5105,0.0165 -0.65871,0.59285 l -0.63895,2.60848 h -1.54467 c -0.32936,0 -0.49404,0 -0.49404,0.3096 0,0.20091 0.13504,0.20091 0.46439,0.20091 h 1.43928 c -1.17908,4.65707 -1.24496,4.93373 -1.24496,5.23344 0,0.88597 0.62249,1.50845 1.50845,1.50845 1.67312,0 2.60849,-2.39441 2.60849,-2.52615 0,-0.16468 -0.12845,-0.16468 -0.19432,-0.16468 -0.1515,0 -0.16468,0.0494 -0.24702,0.23055 -0.70481,1.70276 -1.57431,2.09798 -2.13092,2.09798 -0.34583,0 -0.5105,-0.21408 -0.5105,-0.75422 0,-0.39193 0.0297,-0.5105 0.0988,-0.78715 z"
     id="path1373"
     inkscape:connector-curvature="0"
     style="font-style:normal;font-variant:normal;font-weight:normal;font-stretch:normal;letter-spacing:normal;word-spacing:normal;text-anchor:start;fill:#000000;fill-opacity:1;fill-rule:evenodd;stroke:#000000;stroke-width:0;stroke-linecap:butt;stroke-linejoin:miter;stroke-miterlimit:10.43299961;stroke-dasharray:none;stroke-dashoffset:0;stroke-opacity:1" />
  <path
     d="m 100.81081,99.508347 v -0.0165 -0.0198 -0.0165 -0.0165 -0.0165 -0.0165 -0.0132 -0.0165 -0.0132 -0.0132 l -0.003,-0.0132 v -0.0132 -0.0132 -0.01 -0.0132 l -0.003,-0.01 -0.003,-0.0231 v -0.0198 l -0.007,-0.0165 -0.003,-0.0165 -0.007,-0.0165 -0.007,-0.0132 -0.007,-0.0132 -0.007,-0.01 -0.01,-0.01 -0.01,-0.01 -0.0132,-0.01 -0.0132,-0.007 -0.0132,-0.007 -0.01,-0.003 -0.007,-0.003 h -0.01 l -0.007,-0.003 -0.01,-0.003 h -0.01 l -0.01,-0.003 h -0.01 l -0.0132,-0.003 h -0.01 -0.0132 l -0.0132,-0.003 h -0.01 -0.0132 -0.0165 -0.0132 -0.0132 l -0.0165,-0.003 h -0.0165 -0.0165 -0.0165 -0.0165 c -1.017703,1.050643 -2.460283,1.050643 -2.983963,1.050643 v 0.51051 c 0.32936,0 1.29437,0 2.1441,-0.42817 v 8.50065 c 0,0.59284 -0.0461,0.78716 -1.52162,0.78716 h -0.52696 v 0.5105 c 0.57637,-0.0527 2.00248,-0.0527 2.657893,-0.0527 0.65871,0 2.08152,0 2.65789,0.0527 v -0.5105 h -0.52367 c -1.47551,0 -1.52821,-0.17785 -1.52821,-0.78716 z"
     id="path1375"
     inkscape:connector-curvature="0"
     style="font-style:normal;font-variant:normal;font-weight:normal;font-stretch:normal;letter-spacing:normal;word-spacing:normal;text-anchor:start;fill:#800080;fill-opacity:1;fill-rule:evenodd;stroke:#000000;stroke-width:0;stroke-linecap:butt;stroke-linejoin:miter;stroke-miterlimit:10.43299961;stroke-dasharray:none;stroke-dashoffset:0;stroke-opacity:1" />
  <path
     d="m 169.37165,109.98084 1.73899,-1.68959 c 2.55579,-2.26267 3.54386,-3.14863 3.54386,-4.78882 0,-1.87403 -1.47551,-3.18815 -3.47799,-3.18815 -1.85756,0 -3.07288,1.51503 -3.07288,2.97407 0,0.9189 0.82339,0.9189 0.86949,0.9189 0.28325,0 0.85633,-0.19761 0.85633,-0.8695 0,-0.42816 -0.29313,-0.85632 -0.8695,-0.85632 -0.12845,0 -0.16467,0 -0.21079,0.0165 0.37547,-1.06711 1.25814,-1.67312 2.21327,-1.67312 1.49198,0 2.20009,1.33389 2.20009,2.67765 0,1.31083 -0.82339,2.60849 -1.72253,3.6262 l -3.14862,3.51092 c -0.18774,0.17785 -0.18774,0.21078 -0.18774,0.60601 h 6.08977 l 0.4611,-2.85551 h -0.4117 c -0.0823,0.49404 -0.19432,1.21532 -0.35899,1.46234 -0.11857,0.12845 -1.19885,0.12845 -1.55785,0.12845 z"
     id="path1377"
     inkscape:connector-curvature="0"
     style="font-style:normal;font-variant:normal;font-weight:normal;font-stretch:normal;letter-spacing:normal;word-spacing:normal;text-anchor:start;fill:#800080;fill-opacity:1;fill-rule:evenodd;stroke:#000000;stroke-width:0;stroke-linecap:butt;stroke-linejoin:miter;stroke-miterlimit:10.43299961;stroke-dasharray:none;stroke-dashoffset:0;stroke-opacity:1" />
  <g
     transform="matrix(0.38909347,0,0,0.38909347,23.209247,15.736607)"
     id="g1883">
    <g
       style="font-style:normal;font-variant:normal;font-weight:normal;font-stretch:normal;letter-spacing:normal;word-spacing:normal;text-anchor:start;fill:none;fill-opacity:1;fill-rule:evenodd;stroke:#000000;stroke-linecap:butt;stroke-linejoin:miter;stroke-miterlimit:10.43299961;stroke-dasharray:none;stroke-dashoffset:0;stroke-opacity:1"
       id="g1881"
       transform="matrix(0.87428571,0,0,-0.87428571,-153,594)"
       xml:space="preserve"
       stroke-miterlimit="10.433"
       font-style="normal"
       font-variant="normal"
       font-weight="normal"
       font-stretch="normal"
       font-size-adjust="none"
       letter-spacing="normal"
       word-spacing="normal"><path
         style="fill:#000000;stroke-width:0"
         inkscape:connector-curvature="0"
         d="m 465.79,426.12 h 4.68 c 0.99,0 1.49,0 1.49,1 0,0.55 -0.5,0.55 -1.39,0.55 h -4.39 c 1.79,7.08 2.04,8.08 2.04,8.37 0,0.85 -0.59,1.35 -1.43,1.35 -0.16,0 -1.55,-0.05 -2,-1.8 l -1.94,-7.92 h -4.69 c -1,0 -1.5,0 -1.5,-0.94 0,-0.61 0.41,-0.61 1.41,-0.61 h 4.37 c -3.58,-14.14 -3.78,-14.98 -3.78,-15.89 0,-2.69 1.89,-4.58 4.58,-4.58 5.08,0 7.92,7.27 7.92,7.67 0,0.5 -0.39,0.5 -0.59,0.5 -0.46,0 -0.5,-0.15 -0.75,-0.7 -2.14,-5.17 -4.78,-6.37 -6.47,-6.37 -1.05,0 -1.55,0.65 -1.55,2.29 0,1.19 0.09,1.55 0.3,2.39 z"
         id="path1877" /><path
         style="fill:#000000;stroke-width:0"
         inkscape:connector-curvature="0"
         d="m 489.93,421.59 v 0.05 0.05 0.05 l -0.01,0.06 v 0.05 0.06 0.05 l -0.01,0.06 v 0.06 l -0.01,0.05 -0.01,0.06 -0.01,0.06 -0.01,0.05 -0.01,0.06 -0.02,0.05 -0.02,0.05 -0.02,0.05 -0.02,0.05 -0.03,0.05 -0.03,0.04 -0.03,0.05 -0.03,0.04 -0.04,0.03 -0.02,0.02 -0.02,0.02 -0.03,0.02 -0.02,0.01 -0.02,0.01 -0.03,0.02 -0.02,0.01 -0.03,0.01 -0.03,0.01 -0.03,0.01 -0.03,0.01 -0.03,0.01 h -0.03 l -0.04,0.01 h -0.03 l -0.04,0.01 h -0.03 -0.04 c -0.88,0 -0.88,-0.81 -0.88,-1.36 V 400.46 H 477.6 c -0.53,0 -1.39,0 -1.39,-0.82 0,-0.88 0.79,-0.88 1.39,-0.88 h 22.97 c 0.54,0 1.39,0 1.39,0.85 0,0.85 -0.82,0.85 -1.39,0.85 h -10.64 z"
         id="path1879" /></g>  </g>
  <g
     id="g1891"
     transform="matrix(0.38909347,0,0,0.38909347,20.376967,68.228257)">
    <g
       word-spacing="normal"
       letter-spacing="normal"
       font-size-adjust="none"
       font-stretch="normal"
       font-weight="normal"
       font-variant="normal"
       font-style="normal"
       stroke-miterlimit="10.433"
       xml:space="preserve"
       transform="matrix(0.87428571,0,0,-0.87428571,-153,594)"
       id="g1889"
       style="font-style:normal;font-variant:normal;font-weight:normal;font-stretch:normal;letter-spacing:normal;word-spacing:normal;text-anchor:start;fill:none;fill-opacity:1;fill-rule:evenodd;stroke:#000000;stroke-linecap:butt;stroke-linejoin:miter;stroke-miterlimit:10.43299961;stroke-dasharray:none;stroke-dashoffset:0;stroke-opacity:1"><path
         id="path1885"
         d="m 465.79,426.12 h 4.68 c 0.99,0 1.49,0 1.49,1 0,0.55 -0.5,0.55 -1.39,0.55 h -4.39 c 1.79,7.08 2.04,8.08 2.04,8.37 0,0.85 -0.59,1.35 -1.43,1.35 -0.16,0 -1.55,-0.05 -2,-1.8 l -1.94,-7.92 h -4.69 c -1,0 -1.5,0 -1.5,-0.94 0,-0.61 0.41,-0.61 1.41,-0.61 h 4.37 c -3.58,-14.14 -3.78,-14.98 -3.78,-15.89 0,-2.69 1.89,-4.58 4.58,-4.58 5.08,0 7.92,7.27 7.92,7.67 0,0.5 -0.39,0.5 -0.59,0.5 -0.46,0 -0.5,-0.15 -0.75,-0.7 -2.14,-5.17 -4.78,-6.37 -6.47,-6.37 -1.05,0 -1.55,0.65 -1.55,2.29 0,1.19 0.09,1.55 0.3,2.39 z"
         inkscape:connector-curvature="0"
         style="fill:#000000;stroke-width:0" /><path
         id="path1887"
         d="m 489.93,421.59 v 0.05 0.05 0.05 l -0.01,0.06 v 0.05 0.06 0.05 l -0.01,0.06 v 0.06 l -0.01,0.05 -0.01,0.06 -0.01,0.06 -0.01,0.05 -0.01,0.06 -0.02,0.05 -0.02,0.05 -0.02,0.05 -0.02,0.05 -0.03,0.05 -0.03,0.04 -0.03,0.05 -0.03,0.04 -0.04,0.03 -0.02,0.02 -0.02,0.02 -0.03,0.02 -0.02,0.01 -0.02,0.01 -0.03,0.02 -0.02,0.01 -0.03,0.01 -0.03,0.01 -0.03,0.01 -0.03,0.01 -0.03,0.01 h -0.03 l -0.04,0.01 h -0.03 l -0.04,0.01 h -0.03 -0.04 c -0.88,0 -0.88,-0.81 -0.88,-1.36 V 400.46 H 477.6 c -0.53,0 -1.39,0 -1.39,-0.82 0,-0.88 0.79,-0.88 1.39,-0.88 h 22.97 c 0.54,0 1.39,0 1.39,0.85 0,0.85 -0.82,0.85 -1.39,0.85 h -10.64 z"
         inkscape:connector-curvature="0"
         style="fill:#000000;stroke-width:0" /></g>  </g>
  <g
     transform="matrix(0.38909347,0,0,0.38909347,-44.608203,120.19122)"
     id="g1899">
    <g
       style="font-style:normal;font-variant:normal;font-weight:normal;font-stretch:normal;letter-spacing:normal;word-spacing:normal;text-anchor:start;fill:none;fill-opacity:1;fill-rule:evenodd;stroke:#000000;stroke-linecap:butt;stroke-linejoin:miter;stroke-miterlimit:10.43299961;stroke-dasharray:none;stroke-dashoffset:0;stroke-opacity:1"
       id="g1897"
       transform="matrix(0.87428571,0,0,-0.87428571,-153,594)"
       xml:space="preserve"
       stroke-miterlimit="10.433"
       font-style="normal"
       font-variant="normal"
       font-weight="normal"
       font-stretch="normal"
       font-size-adjust="none"
       letter-spacing="normal"
       word-spacing="normal"><path
         style="fill:#000000;stroke-width:0"
         inkscape:connector-curvature="0"
         d="m 465.79,426.12 h 4.68 c 0.99,0 1.49,0 1.49,1 0,0.55 -0.5,0.55 -1.39,0.55 h -4.39 c 1.79,7.08 2.04,8.08 2.04,8.37 0,0.85 -0.59,1.35 -1.43,1.35 -0.16,0 -1.55,-0.05 -2,-1.8 l -1.94,-7.92 h -4.69 c -1,0 -1.5,0 -1.5,-0.94 0,-0.61 0.41,-0.61 1.41,-0.61 h 4.37 c -3.58,-14.14 -3.78,-14.98 -3.78,-15.89 0,-2.69 1.89,-4.58 4.58,-4.58 5.08,0 7.92,7.27 7.92,7.67 0,0.5 -0.39,0.5 -0.59,0.5 -0.46,0 -0.5,-0.15 -0.75,-0.7 -2.14,-5.17 -4.78,-6.37 -6.47,-6.37 -1.05,0 -1.55,0.65 -1.55,2.29 0,1.19 0.09,1.55 0.3,2.39 z"
         id="path1893" /><path
         style="fill:#000000;stroke-width:0"
         inkscape:connector-curvature="0"
         d="m 489.93,421.59 v 0.05 0.05 0.05 l -0.01,0.06 v 0.05 0.06 0.05 l -0.01,0.06 v 0.06 l -0.01,0.05 -0.01,0.06 -0.01,0.06 -0.01,0.05 -0.01,0.06 -0.02,0.05 -0.02,0.05 -0.02,0.05 -0.02,0.05 -0.03,0.05 -0.03,0.04 -0.03,0.05 -0.03,0.04 -0.04,0.03 -0.02,0.02 -0.02,0.02 -0.03,0.02 -0.02,0.01 -0.02,0.01 -0.03,0.02 -0.02,0.01 -0.03,0.01 -0.03,0.01 -0.03,0.01 -0.03,0.01 -0.03,0.01 h -0.03 l -0.04,0.01 h -0.03 l -0.04,0.01 h -0.03 -0.04 c -0.88,0 -0.88,-0.81 -0.88,-1.36 V 400.46 H 477.6 c -0.53,0 -1.39,0 -1.39,-0.82 0,-0.88 0.79,-0.88 1.39,-0.88 h 22.97 c 0.54,0 1.39,0 1.39,0.85 0,0.85 -0.82,0.85 -1.39,0.85 h -10.64 z"
         id="path1895" /></g>  </g>
  <g
     id="g1907"
     transform="matrix(0.38909347,0,0,0.38909347,93.386927,120.19122)">
    <g
       word-spacing="normal"
       letter-spacing="normal"
       font-size-adjust="none"
       font-stretch="normal"
       font-weight="normal"
       font-variant="normal"
       font-style="normal"
       stroke-miterlimit="10.433"
       xml:space="preserve"
       transform="matrix(0.87428571,0,0,-0.87428571,-153,594)"
       id="g1905"
       style="font-style:normal;font-variant:normal;font-weight:normal;font-stretch:normal;letter-spacing:normal;word-spacing:normal;text-anchor:start;fill:none;fill-opacity:1;fill-rule:evenodd;stroke:#000000;stroke-linecap:butt;stroke-linejoin:miter;stroke-miterlimit:10.43299961;stroke-dasharray:none;stroke-dashoffset:0;stroke-opacity:1"><path
         id="path1901"
         d="m 465.79,426.12 h 4.68 c 0.99,0 1.49,0 1.49,1 0,0.55 -0.5,0.55 -1.39,0.55 h -4.39 c 1.79,7.08 2.04,8.08 2.04,8.37 0,0.85 -0.59,1.35 -1.43,1.35 -0.16,0 -1.55,-0.05 -2,-1.8 l -1.94,-7.92 h -4.69 c -1,0 -1.5,0 -1.5,-0.94 0,-0.61 0.41,-0.61 1.41,-0.61 h 4.37 c -3.58,-14.14 -3.78,-14.98 -3.78,-15.89 0,-2.69 1.89,-4.58 4.58,-4.58 5.08,0 7.92,7.27 7.92,7.67 0,0.5 -0.39,0.5 -0.59,0.5 -0.46,0 -0.5,-0.15 -0.75,-0.7 -2.14,-5.17 -4.78,-6.37 -6.47,-6.37 -1.05,0 -1.55,0.65 -1.55,2.29 0,1.19 0.09,1.55 0.3,2.39 z"
         inkscape:connector-curvature="0"
         style="fill:#000000;stroke-width:0" /><path
         id="path1903"
         d="m 489.93,421.59 v 0.05 0.05 0.05 l -0.01,0.06 v 0.05 0.06 0.05 l -0.01,0.06 v 0.06 l -0.01,0.05 -0.01,0.06 -0.01,0.06 -0.01,0.05 -0.01,0.06 -0.02,0.05 -0.02,0.05 -0.02,0.05 -0.02,0.05 -0.03,0.05 -0.03,0.04 -0.03,0.05 -0.03,0.04 -0.04,0.03 -0.02,0.02 -0.02,0.02 -0.03,0.02 -0.02,0.01 -0.02,0.01 -0.03,0.02 -0.02,0.01 -0.03,0.01 -0.03,0.01 -0.03,0.01 -0.03,0.01 -0.03,0.01 h -0.03 l -0.04,0.01 h -0.03 l -0.04,0.01 h -0.03 -0.04 c -0.88,0 -0.88,-0.81 -0.88,-1.36 V 400.46 H 477.6 c -0.53,0 -1.39,0 -1.39,-0.82 0,-0.88 0.79,-0.88 1.39,-0.88 h 22.97 c 0.54,0 1.39,0 1.39,0.85 0,0.85 -0.82,0.85 -1.39,0.85 h -10.64 z"
         inkscape:connector-curvature="0"
         style="fill:#000000;stroke-width:0" /></g>  </g>
  <path
     style="font-style:normal;font-variant:normal;font-weight:normal;font-stretch:normal;letter-spacing:normal;word-spacing:normal;text-anchor:start;fill:#000000;fill-opacity:1;fill-rule:evenodd;stroke:#000000;stroke-width:0;stroke-linecap:butt;stroke-linejoin:miter;stroke-miterlimit:10.43299961;stroke-dasharray:none;stroke-dashoffset:0;stroke-opacity:1"
     inkscape:connector-curvature="0"
     id="path1916"
     d="m 83.345177,130.10285 h 1.54139 c 0.32605,0 0.49073,0 0.49073,-0.32936 0,-0.18115 -0.16468,-0.18115 -0.4578,-0.18115 h -1.44587 c 0.58954,-2.33183 0.67189,-2.66118 0.67189,-2.7567 0,-0.27995 -0.19432,-0.44463 -0.47098,-0.44463 -0.0527,0 -0.5105,0.0165 -0.65871,0.59285 l -0.63895,2.60848 h -1.54467 c -0.32936,0 -0.49404,0 -0.49404,0.3096 0,0.20091 0.13504,0.20091 0.46439,0.20091 h 1.43928 c -1.17908,4.65707 -1.24496,4.93373 -1.24496,5.23344 0,0.88597 0.62249,1.50845 1.50845,1.50845 1.67312,0 2.60849,-2.39441 2.60849,-2.52615 0,-0.16468 -0.12845,-0.16468 -0.19432,-0.16468 -0.1515,0 -0.16468,0.0494 -0.24702,0.23055 -0.70481,1.70276 -1.57431,2.09798 -2.13092,2.09798 -0.34583,0 -0.5105,-0.21408 -0.5105,-0.75422 0,-0.39193 0.0297,-0.5105 0.0988,-0.78715 z" />
  <path
     style="font-style:normal;font-variant:normal;font-weight:normal;font-stretch:normal;letter-spacing:normal;word-spacing:normal;text-anchor:start;fill:#000000;fill-opacity:1;fill-rule:evenodd;stroke:#000000;stroke-width:0;stroke-linecap:butt;stroke-linejoin:miter;stroke-miterlimit:10.43299961;stroke-dasharray:none;stroke-dashoffset:0;stroke-opacity:1"
     inkscape:connector-curvature="0"
     id="path1918"
     d="m 49.322057,78.853287 h 1.54139 c 0.32605,0 0.49073,0 0.49073,-0.32936 0,-0.18115 -0.16468,-0.18115 -0.4578,-0.18115 h -1.44587 c 0.58954,-2.33183 0.67189,-2.66118 0.67189,-2.7567 0,-0.27995 -0.19432,-0.44463 -0.47098,-0.44463 -0.0527,0 -0.5105,0.0165 -0.65871,0.59285 l -0.63895,2.60848 h -1.54467 c -0.32936,0 -0.49404,0 -0.49404,0.3096 0,0.20091 0.13504,0.20091 0.46439,0.20091 h 1.43928 c -1.17908,4.65707 -1.24496,4.93373 -1.24496,5.23344 0,0.88597 0.62249,1.50845 1.50845,1.50845 1.67312,0 2.60849,-2.39441 2.60849,-2.52615 0,-0.16468 -0.12845,-0.16468 -0.19432,-0.16468 -0.1515,0 -0.16468,0.0494 -0.24702,0.23055 -0.70481,1.70276 -1.57431,2.09798 -2.13092,2.09798 -0.34583,0 -0.5105,-0.21408 -0.5105,-0.75422 0,-0.39193 0.0297,-0.5105 0.0988,-0.78715 z" />
  <path
     d="m 204.02693,75.892507 h 1.54139 c 0.32605,0 0.49073,0 0.49073,-0.32936 0,-0.18115 -0.16468,-0.18115 -0.4578,-0.18115 h -1.44587 c 0.58954,-2.33183 0.67189,-2.66118 0.67189,-2.7567 0,-0.27995 -0.19432,-0.44463 -0.47098,-0.44463 -0.0527,0 -0.5105,0.0165 -0.65871,0.59285 l -0.63895,2.60848 h -1.54467 c -0.32936,0 -0.49404,0 -0.49404,0.3096 0,0.20091 0.13504,0.20091 0.46439,0.20091 h 1.43928 c -1.17908,4.65707 -1.24496,4.93373 -1.24496,5.23344 0,0.88597 0.62249,1.50845 1.50845,1.50845 1.67312,0 2.60849,-2.39441 2.60849,-2.52615 0,-0.16468 -0.12845,-0.16468 -0.19432,-0.16468 -0.1515,0 -0.16468,0.0494 -0.24702,0.23055 -0.70481,1.70276 -1.57431,2.09798 -2.13092,2.09798 -0.34583,0 -0.5105,-0.21408 -0.5105,-0.75422 0,-0.39193 0.0297,-0.5105 0.0988,-0.78715 z"
     id="path1920"
     inkscape:connector-curvature="0"
     style="font-style:normal;font-variant:normal;font-weight:normal;font-stretch:normal;letter-spacing:normal;word-spacing:normal;text-anchor:start;fill:#000000;fill-opacity:1;fill-rule:evenodd;stroke:#000000;stroke-width:0;stroke-linecap:butt;stroke-linejoin:miter;stroke-miterlimit:10.43299961;stroke-dasharray:none;stroke-dashoffset:0;stroke-opacity:1" />
  <path
     d="m 53.928887,180.58712 h 1.54139 c 0.32605,0 0.49073,0 0.49073,-0.32936 0,-0.18115 -0.16468,-0.18115 -0.4578,-0.18115 h -1.44587 c 0.58954,-2.33183 0.67189,-2.66118 0.67189,-2.7567 0,-0.27995 -0.19432,-0.44463 -0.47098,-0.44463 -0.0527,0 -0.5105,0.0165 -0.65871,0.59285 l -0.63895,2.60848 h -1.54467 c -0.32936,0 -0.49404,0 -0.49404,0.3096 0,0.20091 0.13504,0.20091 0.46439,0.20091 h 1.43928 c -1.17908,4.65707 -1.24496,4.93373 -1.24496,5.23344 0,0.88597 0.62249,1.50845 1.50845,1.50845 1.67312,0 2.60849,-2.39441 2.60849,-2.52615 0,-0.16468 -0.12845,-0.16468 -0.19432,-0.16468 -0.1515,0 -0.16468,0.0494 -0.24702,0.23055 -0.70481,1.70276 -1.57431,2.09798 -2.13092,2.09798 -0.34583,0 -0.5105,-0.21408 -0.5105,-0.75422 0,-0.39193 0.0297,-0.5105 0.0988,-0.78715 z"
     id="path1922"
     inkscape:connector-curvature="0"
     style="font-style:normal;font-variant:normal;font-weight:normal;font-stretch:normal;letter-spacing:normal;word-spacing:normal;text-anchor:start;fill:#000000;fill-opacity:1;fill-rule:evenodd;stroke:#000000;stroke-width:0;stroke-linecap:butt;stroke-linejoin:miter;stroke-miterlimit:10.43299961;stroke-dasharray:none;stroke-dashoffset:0;stroke-opacity:1" />
  <path
     style="font-style:normal;font-variant:normal;font-weight:normal;font-stretch:normal;letter-spacing:normal;word-spacing:normal;text-anchor:start;fill:#000000;fill-opacity:1;fill-rule:evenodd;stroke:#000000;stroke-width:0;stroke-linecap:butt;stroke-linejoin:miter;stroke-miterlimit:10.43299961;stroke-dasharray:none;stroke-dashoffset:0;stroke-opacity:1"
     inkscape:connector-curvature="0"
     id="path1924"
     d="m 197.48488,176.74515 h 1.54139 c 0.32605,0 0.49073,0 0.49073,-0.32936 0,-0.18115 -0.16468,-0.18115 -0.4578,-0.18115 h -1.44587 c 0.58954,-2.33183 0.67189,-2.66118 0.67189,-2.7567 0,-0.27995 -0.19432,-0.44463 -0.47098,-0.44463 -0.0527,0 -0.5105,0.0165 -0.65871,0.59285 l -0.63895,2.60848 h -1.54467 c -0.32936,0 -0.49404,0 -0.49404,0.3096 0,0.20091 0.13504,0.20091 0.46439,0.20091 h 1.43928 c -1.17908,4.65707 -1.24496,4.93373 -1.24496,5.23344 0,0.88597 0.62249,1.50845 1.50845,1.50845 1.67312,0 2.60849,-2.39441 2.60849,-2.52615 0,-0.16468 -0.12845,-0.16468 -0.19432,-0.16468 -0.1515,0 -0.16468,0.0494 -0.24702,0.23055 -0.70481,1.70276 -1.57431,2.09798 -2.13092,2.09798 -0.34583,0 -0.5105,-0.21408 -0.5105,-0.75422 0,-0.39193 0.0297,-0.5105 0.0988,-0.78715 z" />
</svg>
