<?xml version="1.0" encoding="UTF-8" standalone="no"?>
<!-- Created with Inkscape (http://www.inkscape.org/) -->

<svg
   xmlns:dc="http://purl.org/dc/elements/1.1/"
   xmlns:cc="http://creativecommons.org/ns#"
   xmlns:rdf="http://www.w3.org/1999/02/22-rdf-syntax-ns#"
   xmlns:svg="http://www.w3.org/2000/svg"
   xmlns="http://www.w3.org/2000/svg"
   xmlns:sodipodi="http://sodipodi.sourceforge.net/DTD/sodipodi-0.dtd"
   xmlns:inkscape="http://www.inkscape.org/namespaces/inkscape"
   width="86.850121mm"
   height="43.874947mm"
   viewBox="0 0 86.850121 43.874947"
   version="1.1"
   id="svg8"
   inkscape:version="0.92.1 r"
   sodipodi:docname="hydrogen_molecule.svg">
  <sodipodi:namedview
     id="base"
     pagecolor="#ffffff"
     bordercolor="#666666"
     borderopacity="1.0"
     inkscape:pageopacity="0.0"
     inkscape:pageshadow="2"
     inkscape:zoom="1.5325203"
     inkscape:cx="365.07133"
     inkscape:cy="-47.54502"
     inkscape:document-units="mm"
     inkscape:current-layer="layer1"
     showgrid="false"
     inkscape:window-width="1916"
     inkscape:window-height="1031"
     inkscape:window-x="0"
     inkscape:window-y="45"
     inkscape:window-maximized="1"
     fit-margin-top="0"
     fit-margin-left="0"
     fit-margin-right="0"
     fit-margin-bottom="0" />
  <defs
     id="defs2" />
  <metadata
     id="metadata5">
    <rdf:RDF>
      <cc:Work
         rdf:about="">
        <dc:format>image/svg+xml</dc:format>
        <dc:type
           rdf:resource="http://purl.org/dc/dcmitype/StillImage" />
        <dc:title></dc:title>
      </cc:Work>
    </rdf:RDF>
  </metadata>
  <g
     id="layer1"
     inkscape:groupmode="layer"
     inkscape:label="Layer 1"
     transform="translate(-1.0794519,-3.3221808)">
    <circle
       r="10.961308"
       cy="24.479166"
       cx="15.497024"
       id="path4485"
       style="opacity:1;fill:#000000;fill-opacity:1;stroke:none;stroke-width:7.14374971;stroke-miterlimit:4;stroke-dasharray:none;stroke-dashoffset:0;stroke-opacity:0" />
    <circle
       style="opacity:1;fill:#000000;fill-opacity:1;stroke:none;stroke-width:7.14374971;stroke-miterlimit:4;stroke-dasharray:none;stroke-dashoffset:0;stroke-opacity:0"
       id="circle4487"
       cx="66.945496"
       cy="24.479166"
       r="10.961308" />
    <rect
       y="23.011677"
       x="21.408091"
       height="2.9349802"
       width="43.852055"
       id="rect4489"
       style="opacity:1;fill:#000000;fill-opacity:1;stroke:none;stroke-width:7.14374971;stroke-miterlimit:4;stroke-dasharray:none;stroke-dashoffset:0;stroke-opacity:0" />
    <g
       transform="translate(-48.340849,-81.316213)"
       id="g4502">
      <g
         style="font-style:normal;font-variant:normal;font-weight:normal;font-stretch:normal;letter-spacing:normal;word-spacing:normal;text-anchor:start;fill:none;fill-opacity:1;fill-rule:evenodd;stroke:#000000;stroke-linecap:butt;stroke-linejoin:miter;stroke-miterlimit:10.43299961;stroke-dasharray:none;stroke-dashoffset:0;stroke-opacity:1"
         word-spacing="normal"
         letter-spacing="normal"
         font-size-adjust="none"
         font-stretch="normal"
         font-weight="normal"
         font-variant="normal"
         font-style="normal"
         stroke-miterlimit="10.433"
         xml:space="preserve"
         transform="matrix(0.3,0,0,-0.3,-52.5,222.75)"
         id="content"><path
           style="fill:#000000;stroke-width:0"
           inkscape:connector-curvature="0"
           id="path4497"
           d="m 465.79,426.12 h 4.68 c 0.99,0 1.49,0 1.49,1 0,0.55 -0.5,0.55 -1.39,0.55 h -4.39 c 1.79,7.08 2.04,8.08 2.04,8.37 0,0.85 -0.59,1.35 -1.43,1.35 -0.16,0 -1.55,-0.05 -2,-1.8 l -1.94,-7.92 h -4.69 c -1,0 -1.5,0 -1.5,-0.94 0,-0.61 0.41,-0.61 1.41,-0.61 h 4.37 c -3.58,-14.14 -3.78,-14.98 -3.78,-15.89 0,-2.69 1.89,-4.58 4.58,-4.58 5.08,0 7.92,7.27 7.92,7.67 0,0.5 -0.39,0.5 -0.59,0.5 -0.46,0 -0.5,-0.15 -0.75,-0.7 -2.14,-5.17 -4.78,-6.37 -6.47,-6.37 -1.05,0 -1.55,0.65 -1.55,2.29 0,1.19 0.09,1.55 0.3,2.39 z" /><path
           style="fill:#000000;stroke-width:0"
           inkscape:connector-curvature="0"
           id="path4499"
           d="m 489.93,421.59 v 0.05 0.05 0.05 l -0.01,0.06 v 0.05 0.06 0.05 l -0.01,0.06 v 0.06 l -0.01,0.05 -0.01,0.06 -0.01,0.06 -0.01,0.05 -0.01,0.06 -0.02,0.05 -0.02,0.05 -0.02,0.05 -0.02,0.05 -0.03,0.05 -0.03,0.04 -0.03,0.05 -0.03,0.04 -0.04,0.03 -0.02,0.02 -0.02,0.02 -0.03,0.02 -0.02,0.01 -0.02,0.01 -0.03,0.02 -0.02,0.01 -0.03,0.01 -0.03,0.01 -0.03,0.01 -0.03,0.01 -0.03,0.01 h -0.03 l -0.04,0.01 h -0.03 l -0.04,0.01 h -0.03 -0.04 c -0.88,0 -0.88,-0.81 -0.88,-1.36 V 400.46 H 477.6 c -0.53,0 -1.39,0 -1.39,-0.82 0,-0.88 0.79,-0.88 1.39,-0.88 h 22.97 c 0.54,0 1.39,0 1.39,0.85 0,0.85 -0.82,0.85 -1.39,0.85 h -10.64 z" /></g>    </g>
    <g
       transform="translate(-84.078548,-87.358819)"
       id="g4530">
      <g
         style="font-style:normal;font-variant:normal;font-weight:normal;font-stretch:normal;letter-spacing:normal;word-spacing:normal;text-anchor:start;fill:none;fill-opacity:1;fill-rule:evenodd;stroke:#000000;stroke-linecap:butt;stroke-linejoin:miter;stroke-miterlimit:10.43299961;stroke-dasharray:none;stroke-dashoffset:0;stroke-opacity:1"
         id="g4528"
         transform="matrix(0.3,0,0,-0.3,-52.5,222.75)"
         xml:space="preserve"
         stroke-miterlimit="10.433"
         font-style="normal"
         font-variant="normal"
         font-weight="normal"
         font-stretch="normal"
         font-size-adjust="none"
         letter-spacing="normal"
         word-spacing="normal"><path
           style="fill:#000000;stroke-width:0"
           inkscape:connector-curvature="0"
           d="m 487.16,435 0.1,0.37 0.05,0.19 0.06,0.18 0.06,0.17 0.07,0.17 0.07,0.17 0.08,0.16 0.08,0.16 0.1,0.16 0.09,0.15 0.11,0.14 0.11,0.14 0.13,0.14 0.13,0.12 0.14,0.13 0.15,0.12 0.17,0.11 0.17,0.11 0.19,0.1 0.19,0.09 0.21,0.09 0.23,0.08 0.23,0.08 0.26,0.07 0.26,0.06 0.28,0.06 0.3,0.04 0.31,0.05 0.33,0.03 0.35,0.03 0.18,0.01 h 0.19 c 0.25,0 0.84,0.05 0.84,1 0,0.05 0,0.55 -0.64,0.55 -1.64,0 -3.39,-0.16 -5.08,-0.16 -1.7,0 -3.55,0.16 -5.19,0.16 -0.29,0 -0.89,0 -0.89,-1 0,-0.55 0.5,-0.55 0.89,-0.55 2.85,-0.04 3.39,-1.09 3.39,-2.18 0,-0.16 -0.11,-0.91 -0.15,-1.05 l -4.49,-17.8 c -1.68,-6.67 -7.42,-11 -12.4,-11 -3.38,0 -6.08,2.19 -6.08,6.47 0,0.11 0,1.7 0.55,3.89 l 4.84,19.38 c 0.44,1.79 0.55,2.29 4.19,2.29 1.28,0 1.68,0 1.68,1 0,0.55 -0.54,0.55 -0.7,0.55 -1.39,0 -4.98,-0.16 -6.37,-0.16 -1.44,0 -4.99,0.16 -6.43,0.16 -0.4,0 -0.95,0 -0.95,-1 0,-0.55 0.45,-0.55 1.41,-0.55 0.09,0 1.04,0 1.89,-0.09 0.89,-0.11 1.34,-0.16 1.34,-0.8 0,-0.31 -0.55,-2.39 -0.84,-3.54 l -1.11,-4.38 c -0.44,-1.95 -2.83,-11.36 -3.03,-12.31 -0.35,-1.39 -0.35,-2.14 -0.35,-2.89 0,-6.08 4.53,-9.56 9.77,-9.56 6.26,0 12.45,5.62 14.09,12.2 z"
           id="path4526" /></g>    </g>
    <g
       transform="translate(-73.547148,-54.124486)"
       id="g4564">
      <g
         style="font-style:normal;font-variant:normal;font-weight:normal;font-stretch:normal;letter-spacing:normal;word-spacing:normal;text-anchor:start;fill:none;fill-opacity:1;fill-rule:evenodd;stroke:#000000;stroke-linecap:butt;stroke-linejoin:miter;stroke-miterlimit:10.43299961;stroke-dasharray:none;stroke-dashoffset:0;stroke-opacity:1"
         word-spacing="normal"
         letter-spacing="normal"
         font-size-adjust="none"
         font-stretch="normal"
         font-weight="normal"
         font-variant="normal"
         font-style="normal"
         stroke-miterlimit="10.433"
         xml:space="preserve"
         transform="matrix(0.3,0,0,-0.3,-52.5,222.75)"
         id="g4562"><path
           style="fill:#000000;stroke-width:0"
           inkscape:connector-curvature="0"
           id="path4560"
           d="m 470.16,438.09 v 0.05 0.06 0.05 0.05 0.05 0.05 0.04 0.05 0.04 0.04 l -0.01,0.04 v 0.04 0.04 0.03 0.04 l -0.01,0.03 -0.01,0.07 v 0.06 l -0.02,0.05 -0.01,0.05 -0.02,0.05 -0.02,0.04 -0.02,0.04 -0.02,0.03 -0.03,0.03 -0.03,0.03 -0.04,0.03 -0.04,0.02 -0.04,0.02 -0.03,0.01 -0.02,0.01 h -0.03 l -0.02,0.01 -0.03,0.01 h -0.03 l -0.03,0.01 h -0.03 l -0.04,0.01 h -0.03 -0.04 l -0.03,0.01 h -0.04 -0.04 -0.05 -0.04 -0.04 l -0.05,0.01 h -0.05 -0.05 -0.05 -0.05 c -3.09,-3.19 -7.47,-3.19 -9.06,-3.19 v -1.55 c 1,0 3.93,0 6.51,1.3 v -25.81 c 0,-1.8 -0.14,-2.39 -4.62,-2.39 h -1.6 v -1.55 c 1.75,0.16 6.08,0.16 8.07,0.16 2,0 6.32,0 8.07,-0.16 v 1.55 h -1.59 c -4.48,0 -4.64,0.54 -4.64,2.39 z" /></g>    </g>
    <g
       transform="translate(-21.062798,-54.124486)"
       id="g4604">
      <g
         style="font-style:normal;font-variant:normal;font-weight:normal;font-stretch:normal;letter-spacing:normal;word-spacing:normal;text-anchor:start;fill:none;fill-opacity:1;fill-rule:evenodd;stroke:#000000;stroke-linecap:butt;stroke-linejoin:miter;stroke-miterlimit:10.43299961;stroke-dasharray:none;stroke-dashoffset:0;stroke-opacity:1"
         id="g4602"
         transform="matrix(0.3,0,0,-0.3,-52.5,222.75)"
         xml:space="preserve"
         stroke-miterlimit="10.433"
         font-style="normal"
         font-variant="normal"
         font-weight="normal"
         font-stretch="normal"
         font-size-adjust="none"
         letter-spacing="normal"
         word-spacing="normal"><path
           style="fill:#000000;stroke-width:0"
           inkscape:connector-curvature="0"
           d="m 461.85,410.04 5.28,5.13 c 7.76,6.87 10.76,9.56 10.76,14.54 0,5.69 -4.48,9.68 -10.56,9.68 -5.64,0 -9.33,-4.6 -9.33,-9.03 0,-2.79 2.5,-2.79 2.64,-2.79 0.86,0 2.6,0.6 2.6,2.64 0,1.3 -0.89,2.6 -2.64,2.6 -0.39,0 -0.5,0 -0.64,-0.05 1.14,3.24 3.83,5.08 6.72,5.08 4.53,0 6.68,-4.05 6.68,-8.13 0,-3.98 -2.5,-7.92 -5.23,-11.01 l -9.56,-10.66 C 458,407.5 458,407.4 458,406.2 h 18.49 l 1.4,8.67 h -1.25 c -0.25,-1.5 -0.59,-3.69 -1.09,-4.44 -0.36,-0.39 -3.64,-0.39 -4.73,-0.39 z"
           id="path4600" /></g>    </g>
    <g
       style="font-style:normal;font-variant:normal;font-weight:normal;font-stretch:normal;letter-spacing:normal;word-spacing:normal;text-anchor:start;fill:#ff0003;fill-opacity:1;fill-rule:evenodd;stroke:#ff0f00;stroke-linecap:butt;stroke-linejoin:miter;stroke-miterlimit:10.43299961;stroke-dasharray:none;stroke-dashoffset:0;stroke-opacity:1"
       id="g4629"
       transform="matrix(0.3,0,0,-0.3,-62.686107,136.25441)"
       xml:space="preserve"
       stroke-miterlimit="10.433"
       font-style="normal"
       font-variant="normal"
       font-weight="normal"
       font-stretch="normal"
       font-size-adjust="none"
       letter-spacing="normal"
       word-spacing="normal"><path
         style="fill:#ff0003;stroke-width:0;stroke:#ff0f00;stroke-opacity:1;fill-opacity:1"
         inkscape:connector-curvature="0"
         d="m 487.16,435 0.1,0.37 0.05,0.19 0.06,0.18 0.06,0.17 0.07,0.17 0.07,0.17 0.08,0.16 0.08,0.16 0.1,0.16 0.09,0.15 0.11,0.14 0.11,0.14 0.13,0.14 0.13,0.12 0.14,0.13 0.15,0.12 0.17,0.11 0.17,0.11 0.19,0.1 0.19,0.09 0.21,0.09 0.23,0.08 0.23,0.08 0.26,0.07 0.26,0.06 0.28,0.06 0.3,0.04 0.31,0.05 0.33,0.03 0.35,0.03 0.18,0.01 h 0.19 c 0.25,0 0.84,0.05 0.84,1 0,0.05 0,0.55 -0.64,0.55 -1.64,0 -3.39,-0.16 -5.08,-0.16 -1.7,0 -3.55,0.16 -5.19,0.16 -0.29,0 -0.89,0 -0.89,-1 0,-0.55 0.5,-0.55 0.89,-0.55 2.85,-0.04 3.39,-1.09 3.39,-2.18 0,-0.16 -0.11,-0.91 -0.15,-1.05 l -4.49,-17.8 c -1.68,-6.67 -7.42,-11 -12.4,-11 -3.38,0 -6.08,2.19 -6.08,6.47 0,0.11 0,1.7 0.55,3.89 l 4.84,19.38 c 0.44,1.79 0.55,2.29 4.19,2.29 1.28,0 1.68,0 1.68,1 0,0.55 -0.54,0.55 -0.7,0.55 -1.39,0 -4.98,-0.16 -6.37,-0.16 -1.44,0 -4.99,0.16 -6.43,0.16 -0.4,0 -0.95,0 -0.95,-1 0,-0.55 0.45,-0.55 1.41,-0.55 0.09,0 1.04,0 1.89,-0.09 0.89,-0.11 1.34,-0.16 1.34,-0.8 0,-0.31 -0.55,-2.39 -0.84,-3.54 l -1.11,-4.38 c -0.44,-1.95 -2.83,-11.36 -3.03,-12.31 -0.35,-1.39 -0.35,-2.14 -0.35,-2.89 0,-6.08 4.53,-9.56 9.77,-9.56 6.26,0 12.45,5.62 14.09,12.2 z"
         id="path4627" /></g>    <path
       id="path4655"
       d="m 65.641847,18.913249 v -0.048 -0.051 l -0.003,-0.048 v -0.024 -0.024 l -0.003,-0.024 -0.003,-0.024 -0.003,-0.021 -0.003,-0.021 -0.006,-0.021 -0.003,-0.021 -0.006,-0.021 -0.006,-0.018 -0.009,-0.018 -0.009,-0.018 -0.009,-0.018 -0.009,-0.015 -0.012,-0.015 -0.012,-0.015 -0.015,-0.012 -0.015,-0.012 -0.009,-0.003 -0.009,-0.006 -0.009,-0.006 -0.009,-0.003 -0.009,-0.003 -0.009,-0.006 -0.009,-0.003 -0.012,-0.003 -0.012,-0.003 -0.009,-0.003 h -0.012 l -0.012,-0.003 h -0.012 l -0.015,-0.003 h -0.012 -0.015 c -0.3,0 -0.3,0.267 -0.3,0.534 v 13.872 c 0,0.27 0,0.537 0.3,0.537 0.3,0 0.3,-0.267 0.3,-0.537 z"
       inkscape:connector-curvature="0"
       style="font-style:normal;font-variant:normal;font-weight:normal;font-stretch:normal;letter-spacing:normal;word-spacing:normal;text-anchor:start;fill:#ffca00;fill-opacity:1;fill-rule:evenodd;stroke:#ff0f00;stroke-width:1;stroke-linecap:butt;stroke-linejoin:miter;stroke-miterlimit:10.43299961;stroke-dasharray:none;stroke-dashoffset:0;stroke-opacity:1" />
    <path
       id="path4657"
       d="m 72.336574,21.289249 0.069,0.108 0.069,0.102 0.069,0.096 0.072,0.096 0.072,0.09 0.072,0.087 0.072,0.087 0.075,0.078 0.072,0.078 0.075,0.075 0.072,0.072 0.075,0.066 0.072,0.063 0.072,0.063 0.072,0.057 0.069,0.054 c 0.915,0.69 1.824,0.84 1.857,0.84 0.177,0 0.177,-0.165 0.177,-0.288 0,-0.237 -0.015,-0.252 -0.342,-0.354 -1.017,-0.288 -1.599,-0.825 -1.944,-1.197 -0.762,-0.825 -0.942,-1.719 -1.032,-2.199 -0.015,-0.075 -0.075,-0.135 -0.165,-0.135 -0.135,0 -0.15,0.09 -0.177,0.273 -0.342,1.659 -1.407,2.82 -3.051,3.285 -0.221999,0.075 -0.254999,0.075 -0.254999,0.327 0,0.123 0,0.288 0.18,0.288 0.045,0 0.926999,-0.165 1.778999,-0.78 0.492,-0.375 0.897,-0.819 1.224,-1.332 v 10.662 c 0,0.267 0,0.537 0.3,0.537 0.3,0 0.3,-0.27 0.3,-0.537 z"
       inkscape:connector-curvature="0"
       style="font-style:normal;font-variant:normal;font-weight:normal;font-stretch:normal;letter-spacing:normal;word-spacing:normal;text-anchor:start;fill:#ffca00;fill-opacity:1;fill-rule:evenodd;stroke:#ff0f00;stroke-width:1;stroke-linecap:butt;stroke-linejoin:miter;stroke-miterlimit:10.43299961;stroke-dasharray:none;stroke-dashoffset:0;stroke-opacity:1" />
    <path
       id="path4659"
       d="m 79.824574,19.753249 v -0.051 -0.048 l -0.003,-0.051 v -0.024 l -0.003,-0.024 v -0.021 l -0.003,-0.024 -0.003,-0.024 -0.003,-0.021 -0.006,-0.021 -0.006,-0.021 -0.003,-0.021 -0.009,-0.018 -0.006,-0.018 -0.009,-0.018 -0.009,-0.018 -0.012,-0.015 -0.009,-0.015 -0.015,-0.015 -0.012,-0.012 -0.015,-0.012 -0.018,-0.012 -0.009,-0.003 -0.009,-0.006 -0.009,-0.003 -0.009,-0.003 -0.012,-0.006 -0.009,-0.003 -0.012,-0.003 h -0.012 l -0.012,-0.003 -0.012,-0.003 h -0.012 -0.012 l -0.015,-0.003 h -0.012 c -0.3,0 -0.3,0.273 -0.3,0.54 v 10.656 c -0.357,-0.57 -0.774,-0.987 -1.149,-1.272 -0.915,-0.684 -1.824,-0.834 -1.857,-0.834 -0.177,0 -0.177,0.165 -0.177,0.282 0,0.237 0.015,0.258 0.348,0.36 1.011,0.282 1.596,0.819 1.938,1.194 0.765,0.822 0.942,1.722 1.032,2.187 0.015,0.069 0.06,0.144 0.165,0.144 0.135,0 0.15,-0.102 0.177,-0.24 0.333,-1.686 1.407,-2.853 3.051,-3.312 0.225,-0.075 0.255,-0.075 0.255,-0.333 0,-0.117 0,-0.282 -0.18,-0.282 -0.045,0 -0.927,0.165 -1.779,0.777 -0.492,0.372 -0.897,0.822 -1.224,1.329 z"
       inkscape:connector-curvature="0"
       style="font-style:normal;font-variant:normal;font-weight:normal;font-stretch:normal;letter-spacing:normal;word-spacing:normal;text-anchor:start;fill:#ffca00;fill-opacity:1;fill-rule:evenodd;stroke:#ff0f00;stroke-width:1;stroke-linecap:butt;stroke-linejoin:miter;stroke-miterlimit:10.43299961;stroke-dasharray:none;stroke-dashoffset:0;stroke-opacity:1" />
    <path
       id="path4661"
       d="m 87.354574,26.104249 0.003,-0.009 0.003,-0.006 0.003,-0.009 0.003,-0.006 0.003,-0.009 0.003,-0.006 0.003,-0.009 0.003,-0.006 0.003,-0.006 0.003,-0.006 v -0.006 l 0.003,-0.009 0.006,-0.009 0.003,-0.012 0.003,-0.012 0.003,-0.009 0.006,-0.009 v -0.009 l 0.003,-0.009 0.003,-0.006 0.003,-0.009 v -0.006 l 0.003,-0.006 0.003,-0.006 v -0.006 -0.006 l 0.003,-0.006 v -0.003 -0.006 -0.003 -0.006 -0.003 l 0.003,-0.009 v -0.009 -0.006 c 0,-0.048 0,-0.075 -0.075,-0.255 l -2.616,-6.876 c -0.09,-0.252 -0.18,-0.342 -0.342,-0.342 -0.165,0 -0.3,0.132 -0.3,0.297 0,0.045 0,0.075 0.075,0.237 l 2.649,6.939 -2.649,6.903 c -0.075,0.165 -0.075,0.192 -0.075,0.267 0,0.165 0.135,0.3 0.3,0.3 0.195,0 0.252,-0.15 0.312,-0.3 z"
       inkscape:connector-curvature="0"
       style="font-style:normal;font-variant:normal;font-weight:normal;font-stretch:normal;letter-spacing:normal;word-spacing:normal;text-anchor:start;fill:#ffca00;fill-opacity:1;fill-rule:evenodd;stroke:#ff0f00;stroke-width:1;stroke-linecap:butt;stroke-linejoin:miter;stroke-miterlimit:10.43299961;stroke-dasharray:none;stroke-dashoffset:0;stroke-opacity:1" />
  </g>
</svg>
