%!PS-Adobe-2.0 EPSF-2.0
%%Title: picC36.eps
%%Creator: fig2dev Version 3.2 Patchlevel 3d
%%CreationDate: Mon Apr 28 14:59:55 2003
%%For: schwinud@eomer (Udo Schwingenschloegl, Tel 3407)
%%BoundingBox: 0 0 434 314
%%Magnification: 1.0000
%%EndComments
/$F2psDict 200 dict def
$F2psDict begin
$F2psDict /mtrx matrix put
/col-1 {0 setgray} bind def
/col0 {0.000 0.000 0.000 srgb} bind def
/col1 {0.000 0.000 1.000 srgb} bind def
/col2 {0.000 1.000 0.000 srgb} bind def
/col3 {0.000 1.000 1.000 srgb} bind def
/col4 {1.000 0.000 0.000 srgb} bind def
/col5 {1.000 0.000 1.000 srgb} bind def
/col6 {1.000 1.000 0.000 srgb} bind def
/col7 {1.000 1.000 1.000 srgb} bind def
/col8 {0.000 0.000 0.560 srgb} bind def
/col9 {0.000 0.000 0.690 srgb} bind def
/col10 {0.000 0.000 0.820 srgb} bind def
/col11 {0.530 0.810 1.000 srgb} bind def
/col12 {0.000 0.560 0.000 srgb} bind def
/col13 {0.000 0.690 0.000 srgb} bind def
/col14 {0.000 0.820 0.000 srgb} bind def
/col15 {0.000 0.560 0.560 srgb} bind def
/col16 {0.000 0.690 0.690 srgb} bind def
/col17 {0.000 0.820 0.820 srgb} bind def
/col18 {0.560 0.000 0.000 srgb} bind def
/col19 {0.690 0.000 0.000 srgb} bind def
/col20 {0.820 0.000 0.000 srgb} bind def
/col21 {0.560 0.000 0.560 srgb} bind def
/col22 {0.690 0.000 0.690 srgb} bind def
/col23 {0.820 0.000 0.820 srgb} bind def
/col24 {0.500 0.190 0.000 srgb} bind def
/col25 {0.630 0.250 0.000 srgb} bind def
/col26 {0.750 0.380 0.000 srgb} bind def
/col27 {1.000 0.500 0.500 srgb} bind def
/col28 {1.000 0.630 0.630 srgb} bind def
/col29 {1.000 0.750 0.750 srgb} bind def
/col30 {1.000 0.880 0.880 srgb} bind def
/col31 {1.000 0.840 0.000 srgb} bind def

end
save
newpath 0 314 moveto 0 0 lineto 434 0 lineto 434 314 lineto closepath clip newpath
-20.5 374.2 translate
1 -1 scale

/cp {closepath} bind def
/ef {eofill} bind def
/gr {grestore} bind def
/gs {gsave} bind def
/sa {save} bind def
/rs {restore} bind def
/l {lineto} bind def
/m {moveto} bind def
/rm {rmoveto} bind def
/n {newpath} bind def
/s {stroke} bind def
/sh {show} bind def
/slc {setlinecap} bind def
/slj {setlinejoin} bind def
/slw {setlinewidth} bind def
/srgb {setrgbcolor} bind def
/rot {rotate} bind def
/sc {scale} bind def
/sd {setdash} bind def
/ff {findfont} bind def
/sf {setfont} bind def
/scf {scalefont} bind def
/sw {stringwidth} bind def
/tr {translate} bind def
/tnt {dup dup currentrgbcolor
  4 -2 roll dup 1 exch sub 3 -1 roll mul add
  4 -2 roll dup 1 exch sub 3 -1 roll mul add
  4 -2 roll dup 1 exch sub 3 -1 roll mul add srgb}
  bind def
/shd {dup dup currentrgbcolor 4 -2 roll mul 4 -2 roll mul
  4 -2 roll mul srgb} bind def
/$F2psBegin {$F2psDict begin /$F2psEnteredState save def} def
/$F2psEnd {$F2psEnteredState restore end} def

$F2psBegin
10 setmiterlimit
0 slj 0 slc
 0.06299 0.06299 sc
%
% Fig objects follow
%
/Times-Roman ff 165.00 scf sf
6760 1468 m
gs 1 -1 sc (2) col0 sh gr
% Polyline
%
% pen to black in case this eps object doesn't set color first
0 0 0 setrgbcolor
% Begin Imported EPS File: picC36-1.eps
%%BeginDocument: picC36-1.eps
%
n gs
326 1575 tr
15.875289 -15.876364 sc
0 -275 tr
-92 -50 tr
sa
n 92 50 m 525 50 l 525 325 l 92 325 l cp clip n
countdictstack
mark
/showpage {} def
% EPS file follows:
%!PS-Adobe-2.0
%%Title: picC36.eps
%%Creator: gnuplot 3.7 patchlevel 1
%%CreationDate: Mon Apr 28 13:40:42 2003
%%DocumentFonts: (atend)
%%BoundingBox: 92 50 525 325
%%Orientation: Portrait
%%Pages: (atend)
%%EndComments
/gnudict 256 dict def
gnudict begin
/Color true def
/Solid false def
/gnulinewidth 5.000 def
/userlinewidth gnulinewidth def
/vshift -60 def
/dl {10 mul} def
/hpt_ 31.5 def
/vpt_ 31.5 def
/hpt hpt_ def
/vpt vpt_ def
/M {moveto} bind def
/L {lineto} bind def
/R {rmoveto} bind def
/V {rlineto} bind def
/vpt2 vpt 2 mul def
/hpt2 hpt 2 mul def
/Lshow { currentpoint stroke M
  0 vshift R show } def
/Rshow { currentpoint stroke M
  dup stringwidth pop neg vshift R show } def
/Cshow { currentpoint stroke M
  dup stringwidth pop -2 div vshift R show } def
/UP { dup vpt_ mul /vpt exch def hpt_ mul /hpt exch def
  /hpt2 hpt 2 mul def /vpt2 vpt 2 mul def } def
/DL { Color {setrgbcolor Solid {pop []} if 0 setdash }
 {pop pop pop Solid {pop []} if 0 setdash} ifelse } def
/BL { stroke userlinewidth 2 mul setlinewidth } def
/AL { stroke userlinewidth 2 div setlinewidth } def
/UL { dup gnulinewidth mul /userlinewidth exch def
      10 mul /udl exch def } def
/PL { stroke userlinewidth setlinewidth } def
/LTb { BL [] 0 0 0 DL } def
/LTa { AL [1 udl mul 2 udl mul] 0 setdash 0 0 0 setrgbcolor } def
/LT0 { PL [] 1 0 0 DL } def
/LT1 { PL [4 dl 2 dl] 0 1 0 DL } def
/LT2 { PL [2 dl 3 dl] 0 0 1 DL } def
/LT3 { PL [1 dl 1.5 dl] 1 0 1 DL } def
/LT4 { PL [5 dl 2 dl 1 dl 2 dl] 0 1 1 DL } def
/LT5 { PL [4 dl 3 dl 1 dl 3 dl] 1 1 0 DL } def
/LT6 { PL [2 dl 2 dl 2 dl 4 dl] 0 0 0 DL } def
/LT7 { PL [2 dl 2 dl 2 dl 2 dl 2 dl 4 dl] 1 0.3 0 DL } def
/LT8 { PL [2 dl 2 dl 2 dl 2 dl 2 dl 2 dl 2 dl 4 dl] 0.5 0.5 0.5 DL } def
/Pnt { stroke [] 0 setdash
   gsave 1 setlinecap M 0 0 V stroke grestore } def
/Dia { stroke [] 0 setdash 2 copy vpt add M
  hpt neg vpt neg V hpt vpt neg V
  hpt vpt V hpt neg vpt V closepath stroke
  Pnt } def
/Pls { stroke [] 0 setdash vpt sub M 0 vpt2 V
  currentpoint stroke M
  hpt neg vpt neg R hpt2 0 V stroke
  } def
/Box { stroke [] 0 setdash 2 copy exch hpt sub exch vpt add M
  0 vpt2 neg V hpt2 0 V 0 vpt2 V
  hpt2 neg 0 V closepath stroke
  Pnt } def
/Crs { stroke [] 0 setdash exch hpt sub exch vpt add M
  hpt2 vpt2 neg V currentpoint stroke M
  hpt2 neg 0 R hpt2 vpt2 V stroke } def
/TriU { stroke [] 0 setdash 2 copy vpt 1.12 mul add M
  hpt neg vpt -1.62 mul V
  hpt 2 mul 0 V
  hpt neg vpt 1.62 mul V closepath stroke
  Pnt  } def
/Star { 2 copy Pls Crs } def
/BoxF { stroke [] 0 setdash exch hpt sub exch vpt add M
  0 vpt2 neg V  hpt2 0 V  0 vpt2 V
  hpt2 neg 0 V  closepath fill } def
/TriUF { stroke [] 0 setdash vpt 1.12 mul add M
  hpt neg vpt -1.62 mul V
  hpt 2 mul 0 V
  hpt neg vpt 1.62 mul V closepath fill } def
/TriD { stroke [] 0 setdash 2 copy vpt 1.12 mul sub M
  hpt neg vpt 1.62 mul V
  hpt 2 mul 0 V
  hpt neg vpt -1.62 mul V closepath stroke
  Pnt  } def
/TriDF { stroke [] 0 setdash vpt 1.12 mul sub M
  hpt neg vpt 1.62 mul V
  hpt 2 mul 0 V
  hpt neg vpt -1.62 mul V closepath fill} def
/DiaF { stroke [] 0 setdash vpt add M
  hpt neg vpt neg V hpt vpt neg V
  hpt vpt V hpt neg vpt V closepath fill } def
/Pent { stroke [] 0 setdash 2 copy gsave
  translate 0 hpt M 4 {72 rotate 0 hpt L} repeat
  closepath stroke grestore Pnt } def
/PentF { stroke [] 0 setdash gsave
  translate 0 hpt M 4 {72 rotate 0 hpt L} repeat
  closepath fill grestore } def
/Circle { stroke [] 0 setdash 2 copy
  hpt 0 360 arc stroke Pnt } def
/CircleF { stroke [] 0 setdash hpt 0 360 arc fill } def
/C0 { BL [] 0 setdash 2 copy moveto vpt 90 450  arc } bind def
/C1 { BL [] 0 setdash 2 copy        moveto
       2 copy  vpt 0 90 arc closepath fill
               vpt 0 360 arc closepath } bind def
/C2 { BL [] 0 setdash 2 copy moveto
       2 copy  vpt 90 180 arc closepath fill
               vpt 0 360 arc closepath } bind def
/C3 { BL [] 0 setdash 2 copy moveto
       2 copy  vpt 0 180 arc closepath fill
               vpt 0 360 arc closepath } bind def
/C4 { BL [] 0 setdash 2 copy moveto
       2 copy  vpt 180 270 arc closepath fill
               vpt 0 360 arc closepath } bind def
/C5 { BL [] 0 setdash 2 copy moveto
       2 copy  vpt 0 90 arc
       2 copy moveto
       2 copy  vpt 180 270 arc closepath fill
               vpt 0 360 arc } bind def
/C6 { BL [] 0 setdash 2 copy moveto
      2 copy  vpt 90 270 arc closepath fill
              vpt 0 360 arc closepath } bind def
/C7 { BL [] 0 setdash 2 copy moveto
      2 copy  vpt 0 270 arc closepath fill
              vpt 0 360 arc closepath } bind def
/C8 { BL [] 0 setdash 2 copy moveto
      2 copy vpt 270 360 arc closepath fill
              vpt 0 360 arc closepath } bind def
/C9 { BL [] 0 setdash 2 copy moveto
      2 copy  vpt 270 450 arc closepath fill
              vpt 0 360 arc closepath } bind def
/C10 { BL [] 0 setdash 2 copy 2 copy moveto vpt 270 360 arc closepath fill
       2 copy moveto
       2 copy vpt 90 180 arc closepath fill
               vpt 0 360 arc closepath } bind def
/C11 { BL [] 0 setdash 2 copy moveto
       2 copy  vpt 0 180 arc closepath fill
       2 copy moveto
       2 copy  vpt 270 360 arc closepath fill
               vpt 0 360 arc closepath } bind def
/C12 { BL [] 0 setdash 2 copy moveto
       2 copy  vpt 180 360 arc closepath fill
               vpt 0 360 arc closepath } bind def
/C13 { BL [] 0 setdash  2 copy moveto
       2 copy  vpt 0 90 arc closepath fill
       2 copy moveto
       2 copy  vpt 180 360 arc closepath fill
               vpt 0 360 arc closepath } bind def
/C14 { BL [] 0 setdash 2 copy moveto
       2 copy  vpt 90 360 arc closepath fill
               vpt 0 360 arc } bind def
/C15 { BL [] 0 setdash 2 copy vpt 0 360 arc closepath fill
               vpt 0 360 arc closepath } bind def
/Rec   { newpath 4 2 roll moveto 1 index 0 rlineto 0 exch rlineto
       neg 0 rlineto closepath } bind def
/Square { dup Rec } bind def
/Bsquare { vpt sub exch vpt sub exch vpt2 Square } bind def
/S0 { BL [] 0 setdash 2 copy moveto 0 vpt rlineto BL Bsquare } bind def
/S1 { BL [] 0 setdash 2 copy vpt Square fill Bsquare } bind def
/S2 { BL [] 0 setdash 2 copy exch vpt sub exch vpt Square fill Bsquare } bind def
/S3 { BL [] 0 setdash 2 copy exch vpt sub exch vpt2 vpt Rec fill Bsquare } bind def
/S4 { BL [] 0 setdash 2 copy exch vpt sub exch vpt sub vpt Square fill Bsquare } bind def
/S5 { BL [] 0 setdash 2 copy 2 copy vpt Square fill
       exch vpt sub exch vpt sub vpt Square fill Bsquare } bind def
/S6 { BL [] 0 setdash 2 copy exch vpt sub exch vpt sub vpt vpt2 Rec fill Bsquare } bind def
/S7 { BL [] 0 setdash 2 copy exch vpt sub exch vpt sub vpt vpt2 Rec fill
       2 copy vpt Square fill
       Bsquare } bind def
/S8 { BL [] 0 setdash 2 copy vpt sub vpt Square fill Bsquare } bind def
/S9 { BL [] 0 setdash 2 copy vpt sub vpt vpt2 Rec fill Bsquare } bind def
/S10 { BL [] 0 setdash 2 copy vpt sub vpt Square fill 2 copy exch vpt sub exch vpt Square fill
       Bsquare } bind def
/S11 { BL [] 0 setdash 2 copy vpt sub vpt Square fill 2 copy exch vpt sub exch vpt2 vpt Rec fill
       Bsquare } bind def
/S12 { BL [] 0 setdash 2 copy exch vpt sub exch vpt sub vpt2 vpt Rec fill Bsquare } bind def
/S13 { BL [] 0 setdash 2 copy exch vpt sub exch vpt sub vpt2 vpt Rec fill
       2 copy vpt Square fill Bsquare } bind def
/S14 { BL [] 0 setdash 2 copy exch vpt sub exch vpt sub vpt2 vpt Rec fill
       2 copy exch vpt sub exch vpt Square fill Bsquare } bind def
/S15 { BL [] 0 setdash 2 copy Bsquare fill Bsquare } bind def
/D0 { gsave translate 45 rotate 0 0 S0 stroke grestore } bind def
/D1 { gsave translate 45 rotate 0 0 S1 stroke grestore } bind def
/D2 { gsave translate 45 rotate 0 0 S2 stroke grestore } bind def
/D3 { gsave translate 45 rotate 0 0 S3 stroke grestore } bind def
/D4 { gsave translate 45 rotate 0 0 S4 stroke grestore } bind def
/D5 { gsave translate 45 rotate 0 0 S5 stroke grestore } bind def
/D6 { gsave translate 45 rotate 0 0 S6 stroke grestore } bind def
/D7 { gsave translate 45 rotate 0 0 S7 stroke grestore } bind def
/D8 { gsave translate 45 rotate 0 0 S8 stroke grestore } bind def
/D9 { gsave translate 45 rotate 0 0 S9 stroke grestore } bind def
/D10 { gsave translate 45 rotate 0 0 S10 stroke grestore } bind def
/D11 { gsave translate 45 rotate 0 0 S11 stroke grestore } bind def
/D12 { gsave translate 45 rotate 0 0 S12 stroke grestore } bind def
/D13 { gsave translate 45 rotate 0 0 S13 stroke grestore } bind def
/D14 { gsave translate 45 rotate 0 0 S14 stroke grestore } bind def
/D15 { gsave translate 45 rotate 0 0 S15 stroke grestore } bind def
/DiaE { stroke [] 0 setdash vpt add M
  hpt neg vpt neg V hpt vpt neg V
  hpt vpt V hpt neg vpt V closepath stroke } def
/BoxE { stroke [] 0 setdash exch hpt sub exch vpt add M
  0 vpt2 neg V hpt2 0 V 0 vpt2 V
  hpt2 neg 0 V closepath stroke } def
/TriUE { stroke [] 0 setdash vpt 1.12 mul add M
  hpt neg vpt -1.62 mul V
  hpt 2 mul 0 V
  hpt neg vpt 1.62 mul V closepath stroke } def
/TriDE { stroke [] 0 setdash vpt 1.12 mul sub M
  hpt neg vpt 1.62 mul V
  hpt 2 mul 0 V
  hpt neg vpt -1.62 mul V closepath stroke } def
/PentE { stroke [] 0 setdash gsave
  translate 0 hpt M 4 {72 rotate 0 hpt L} repeat
  closepath stroke grestore } def
/CircE { stroke [] 0 setdash 
  hpt 0 360 arc stroke } def
/Opaque { gsave closepath 1 setgray fill grestore 0 setgray closepath } def
/DiaW { stroke [] 0 setdash vpt add M
  hpt neg vpt neg V hpt vpt neg V
  hpt vpt V hpt neg vpt V Opaque stroke } def
/BoxW { stroke [] 0 setdash exch hpt sub exch vpt add M
  0 vpt2 neg V hpt2 0 V 0 vpt2 V
  hpt2 neg 0 V Opaque stroke } def
/TriUW { stroke [] 0 setdash vpt 1.12 mul add M
  hpt neg vpt -1.62 mul V
  hpt 2 mul 0 V
  hpt neg vpt 1.62 mul V Opaque stroke } def
/TriDW { stroke [] 0 setdash vpt 1.12 mul sub M
  hpt neg vpt 1.62 mul V
  hpt 2 mul 0 V
  hpt neg vpt -1.62 mul V Opaque stroke } def
/PentW { stroke [] 0 setdash gsave
  translate 0 hpt M 4 {72 rotate 0 hpt L} repeat
  Opaque stroke grestore } def
/CircW { stroke [] 0 setdash 
  hpt 0 360 arc Opaque stroke } def
/BoxFill { gsave Rec 1 setgray fill grestore } def
/MFshow {{dup dup 0 get findfont exch 1 get scalefont setfont
     [ currentpoint ] exch dup 2 get 0 exch rmoveto dup dup 5 get exch 4 get
     {show} {stringwidth pop 0 rmoveto}ifelse dup 3 get
     {2 get neg 0 exch rmoveto pop} {pop aload pop moveto}ifelse} forall} bind def
/MFwidth {0 exch {dup 3 get{dup dup 0 get findfont exch 1 get scalefont setfont
      5 get stringwidth pop add}
    {pop} ifelse} forall} bind def
/MLshow { currentpoint stroke M
  0 exch R MFshow } bind def
/MRshow { currentpoint stroke M
  exch dup MFwidth neg 3 -1 roll R MFshow } def
/MCshow { currentpoint stroke M
  exch dup MFwidth -2 div 3 -1 roll R MFshow } def
end
%%EndProlog
%%Page: 1 1
gnudict begin
gsave
50 50 translate
0.100 0.100 scale
0 setgray
newpath
(Times-Roman) findfont 180 scalefont setfont
1.000 UL
LTb
810 540 M
63 0 V
3861 0 R
-63 0 V
 stroke
702 540 M
[ [(Times-Roman) 180.0 0.0 true true (0)]
] -60.0 MRshow
810 897 M
63 0 V
3861 0 R
-63 0 V
 stroke
702 897 M
[ [(Times-Roman) 180.0 0.0 true true (100)]
] -60.0 MRshow
810 1253 M
63 0 V
3861 0 R
-63 0 V
 stroke
702 1253 M
[ [(Times-Roman) 180.0 0.0 true true (200)]
] -60.0 MRshow
810 1610 M
63 0 V
3861 0 R
-63 0 V
 stroke
702 1610 M
[ [(Times-Roman) 180.0 0.0 true true (300)]
] -60.0 MRshow
810 1967 M
63 0 V
3861 0 R
-63 0 V
 stroke
702 1967 M
[ [(Times-Roman) 180.0 0.0 true true (400)]
] -60.0 MRshow
810 2324 M
63 0 V
3861 0 R
-63 0 V
 stroke
702 2324 M
[ [(Times-Roman) 180.0 0.0 true true (500)]
] -60.0 MRshow
1137 540 M
0 63 V
0 1899 R
0 -63 V
 stroke
1137 360 M
[ [(Times-Roman) 180.0 0.0 true true (1.5)]
] -60.0 MCshow
1791 540 M
0 63 V
0 1899 R
0 -63 V
 stroke
1791 360 M
[ [(Times-Roman) 180.0 0.0 true true (1.6)]
] -60.0 MCshow
2445 540 M
0 63 V
0 1899 R
0 -63 V
 stroke
2445 360 M
[ [(Times-Roman) 180.0 0.0 true true (1.7)]
] -60.0 MCshow
3099 540 M
0 63 V
0 1899 R
0 -63 V
 stroke
3099 360 M
[ [(Times-Roman) 180.0 0.0 true true (1.8)]
] -60.0 MCshow
3753 540 M
0 63 V
0 1899 R
0 -63 V
 stroke
3753 360 M
[ [(Times-Roman) 180.0 0.0 true true (1.9)]
] -60.0 MCshow
4407 540 M
0 63 V
0 1899 R
0 -63 V
 stroke
4407 360 M
[ [(Times-Roman) 180.0 0.0 true true (2)]
] -60.0 MCshow
1.000 UL
LTb
810 540 M
3924 0 V
0 1962 V
-3924 0 V
810 540 L
 stroke
635 2650 M
[ [(Times-Roman) 180.0 0.0 true true (T \(K\))]
] -60.0 MCshow
2772 140 M
[ [(Times-Roman) 180.0 0.0 true true (x in VO)]
[(Times-Roman) 144.0 -54.0 true true (x)]
] -42.0 MCshow
1.500 UP
2.000 UL
LT0
3915 2249 M
[ [(Times-Roman) 180.0 0.0 true true (T)]
[(Times-Roman) 144.0 -54.0 true true (MIT)]
] -42.0 MRshow
4023 2249 M
495 0 V
1137 1139 M
1112 935 V
523 -642 V
327 -410 V
196 124 V
3491 540 L
131 250 V
785 963 V
1137 1139 Star
2249 2074 Star
2772 1432 Star
3099 1022 Star
3295 1146 Star
3491 540 Star
3622 790 Star
4407 1753 Star
4270 2249 Star
1.500 UP
2.000 UL
LT1
3915 2019 M
[ [(Times-Roman) 180.0 0.0 true true (T)]
[(Times-Roman) 144.0 -54.0 true true (N)]
] -42.0 MRshow
4023 2019 M
495 0 V
1137 1139 M
2249 790 L
2772 683 L
327 -36 V
196 -25 V
196 71 V
3622 565 L
785 -25 V
1137 1139 Star
2249 790 Star
2772 683 Star
3099 647 Star
3295 622 Star
3491 693 Star
3622 565 Star
4407 540 Star
4270 2019 Star
stroke
grestore
end
showpage
%%Trailer
%%DocumentFonts: Times-Roman
%%Pages: 1


cleartomark
countdictstack exch sub { end } repeat
restore grestore
%
% End Imported PIC File: picC36-1.eps
%%EndDocument
%
/Times-Roman ff 225.00 scf sf
6441 1420 m
gs 1 -1 sc (VO) col0 sh gr
/Times-Roman ff 225.00 scf sf
3177 1436 m
gs 1 -1 sc (O) col0 sh gr
/Times-Roman ff 165.00 scf sf
3334 1485 m
gs 1 -1 sc (5) col0 sh gr
/Times-Roman ff 225.00 scf sf
2982 1436 m
gs 1 -1 sc (V) col0 sh gr
/Times-Roman ff 165.00 scf sf
3097 1485 m
gs 1 -1 sc (3) col0 sh gr
/Times-Roman ff 225.00 scf sf
1422 1436 m
gs 1 -1 sc (O) col0 sh gr
/Times-Roman ff 165.00 scf sf
1579 1485 m
gs 1 -1 sc (3) col0 sh gr
/Times-Roman ff 225.00 scf sf
1227 1436 m
gs 1 -1 sc (V) col0 sh gr
/Times-Roman ff 165.00 scf sf
1342 1485 m
gs 1 -1 sc (2) col0 sh gr
/Times-Roman ff 225.00 scf sf
4817 1436 m
gs 1 -1 sc (O) col0 sh gr
/Times-Roman ff 165.00 scf sf
4974 1485 m
gs 1 -1 sc (11) col0 sh gr
/Times-Roman ff 225.00 scf sf
4622 1436 m
gs 1 -1 sc (V) col0 sh gr
/Times-Roman ff 165.00 scf sf
4737 1485 m
gs 1 -1 sc (6) col0 sh gr
/Times-Roman ff 225.00 scf sf
4007 1436 m
gs 1 -1 sc (O) col0 sh gr
/Times-Roman ff 165.00 scf sf
4164 1485 m
gs 1 -1 sc (7) col0 sh gr
/Times-Roman ff 225.00 scf sf
3812 1436 m
gs 1 -1 sc (V) col0 sh gr
/Times-Roman ff 165.00 scf sf
3927 1485 m
gs 1 -1 sc (4) col0 sh gr
/Times-Roman ff 225.00 scf sf
5137 1121 m
gs 1 -1 sc (O) col0 sh gr
/Times-Roman ff 165.00 scf sf
5294 1170 m
gs 1 -1 sc (13) col0 sh gr
/Times-Roman ff 225.00 scf sf
4942 1121 m
gs 1 -1 sc (V) col0 sh gr
/Times-Roman ff 165.00 scf sf
5057 1170 m
gs 1 -1 sc (7) col0 sh gr
/Times-Roman ff 225.00 scf sf
5427 1436 m
gs 1 -1 sc (O) col0 sh gr
/Times-Roman ff 165.00 scf sf
5584 1485 m
gs 1 -1 sc (15) col0 sh gr
/Times-Roman ff 225.00 scf sf
5232 1436 m
gs 1 -1 sc (V) col0 sh gr
/Times-Roman ff 165.00 scf sf
5347 1485 m
gs 1 -1 sc (8) col0 sh gr
/Times-Roman ff 225.00 scf sf
4527 1121 m
gs 1 -1 sc (O) col0 sh gr
/Times-Roman ff 165.00 scf sf
4684 1170 m
gs 1 -1 sc (9) col0 sh gr
/Times-Roman ff 225.00 scf sf
4332 1121 m
gs 1 -1 sc (V) col0 sh gr
/Times-Roman ff 165.00 scf sf
4447 1170 m
gs 1 -1 sc (5) col0 sh gr
% Polyline
15.000 slw
gs  clippath
1427 1915 m 1502 1915 l 1502 1783 l 1465 1888 l 1427 1783 l cp
eoclip
n 1465 1500 m
 1465 1900 l gs col0 s gr gr

% arrowhead
7.500 slw
n 1427 1783 m 1465 1888 l 1502 1783 l 1427 1783 l  cp gs 0.00 setgray ef gr  col0 s
% Polyline
15.000 slw
gs  clippath
4012 1915 m 4087 1915 l 4087 1783 l 4050 1888 l 4012 1783 l cp
eoclip
n 4050 1500 m
 4050 1900 l gs col0 s gr gr

% arrowhead
7.500 slw
n 4012 1783 m 4050 1888 l 4087 1783 l 4012 1783 l  cp gs 0.00 setgray ef gr  col0 s
% Polyline
15.000 slw
gs  clippath
4842 1915 m 4917 1915 l 4917 1783 l 4880 1888 l 4842 1783 l cp
eoclip
n 4880 1500 m
 4880 1900 l gs col0 s gr gr

% arrowhead
7.500 slw
n 4842 1783 m 4880 1888 l 4917 1783 l 4842 1783 l  cp gs 0.00 setgray ef gr  col0 s
% Polyline
15.000 slw
gs  clippath
3177 1915 m 3252 1915 l 3252 1783 l 3215 1888 l 3177 1783 l cp
eoclip
n 3215 1500 m
 3215 1900 l gs col0 s gr gr

% arrowhead
7.500 slw
n 3177 1783 m 3215 1888 l 3252 1783 l 3177 1783 l  cp gs 0.00 setgray ef gr  col0 s
% Polyline
15.000 slw
gs  clippath
6612 1915 m 6687 1915 l 6687 1783 l 6650 1888 l 6612 1783 l cp
eoclip
n 6650 1500 m
 6650 1900 l gs col0 s gr gr

% arrowhead
7.500 slw
n 6612 1783 m 6650 1888 l 6687 1783 l 6612 1783 l  cp gs 0.00 setgray ef gr  col0 s
% Polyline
15.000 slw
gs  clippath
5377 1915 m 5452 1915 l 5452 1783 l 5415 1888 l 5377 1783 l cp
eoclip
n 5415 1500 m
 5415 1900 l gs col0 s gr gr

% arrowhead
7.500 slw
n 5377 1783 m 5415 1888 l 5452 1783 l 5377 1783 l  cp gs 0.00 setgray ef gr  col0 s
% Polyline
15.000 slw
gs  clippath
4537 1915 m 4612 1915 l 4612 1783 l 4575 1888 l 4537 1783 l cp
eoclip
n 4575 1200 m
 4575 1900 l gs col0 s gr gr

% arrowhead
7.500 slw
n 4537 1783 m 4575 1888 l 4612 1783 l 4537 1783 l  cp gs 0.00 setgray ef gr  col0 s
% Polyline
15.000 slw
gs  clippath
5152 1915 m 5227 1915 l 5227 1783 l 5190 1888 l 5152 1783 l cp
eoclip
n 5190 1200 m
 5190 1900 l gs col0 s gr gr

% arrowhead
7.500 slw
n 5152 1783 m 5190 1888 l 5227 1783 l 5152 1783 l  cp gs 0.00 setgray ef gr  col0 s
$F2psEnd
rs

